https://raw.githubusercontent.com/Gamer1092/Coderbyte-Medium/Medium/Swap%20II.cpp
https://raw.githubusercontent.com/ZLester/Coderbyte-Solutions/master/Medium/19%20-%20Swap%20II.js
https://raw.githubusercontent.com/tomyancey/coderbyte_solutions/master/swap_case.rb
