https://raw.githubusercontent.com/YetAnotherMinion/YAMScratch/master/CodeAbbey/asm-sol/200.asm
https://raw.githubusercontent.com/KlaudioVito/CodeAbbey/master/FizzBuzz.java
https://raw.githubusercontent.com/blakeembrey/code-problems/master/solutions/perl/shortest-fizz-buzz.pl
https://gist.githubusercontent.com/kneels/e41f111997ffc602b675/raw/e14f670801444a3ae896c51e8cb659b41283d006/fizzbuzz.s
