https://www.youtube.com/watch?v=lxxmKJFo1WQ
https://www.youtube.com/watch?v=tcLyXEu8tag
https://www.youtube.com/watch?v=BWp8JbKOKKk
https://www.youtube.com/watch?v=vr2eIeCF8Y4
https://www.youtube.com/watch?v=1-bKU1B4PF0
https://www.youtube.com/watch?v=nzMHomhLem0
https://www.youtube.com/watch?v=gJ6jqwI-3tE
https://www.youtube.com/watch?v=U4Nv8jo1nlg
https://www.youtube.com/watch?v=cV6GLRXbITA
https://www.youtube.com/watch?v=rx5T9tACKMI
https://www.youtube.com/watch?v=-ZvsLNYvwwA
https://www.youtube.com/watch?v=OZbeiyHZV54
https://www.youtube.com/watch?v=ZRRrGLbDiB4
https://www.youtube.com/watch?v=nESitN6jP84
https://www.youtube.com/watch?v=JMJxiHrfhBY
https://www.youtube.com/watch?v=6qPOxXCgGjE
https://www.vimore.org/watch/lxxmKJFo1WQ/owasp-webgoat-8-insecure-communication-2/
https://www.youtube.com/watch?v=lxxmKJFo1WQ&list=PLrHVSJmDPvlqxCfBhPuksHdpViPyeZTsF&index=26
