https://kupdf.net/download/demotestfirenet-security-report-86_5b0466cde2b6f5b31f0e6896_pdf
http://blog.dornea.nu/2013/05/06/hacking-altoro-mutual/#67cf80dbb18aadf77119f4a4f5cb98ab
https://by-clips.com/video/GTQRQsJTZ8E/me-hacking-into-altoro-mutual.html
https://www.youtube.com/watch?v=5BpStW4zM44
