https://gist.githubusercontent.com/Arinerron/19d75c81bcff5622bf6d4f2ff8e3829d/raw/46e67a9e69fa9b8f4684dda034f7c67098369c08/xss-game-solutions.txt
https://gist.github.com/djadmin/737a77b87d0bad8a9c79
https://medium.com/bugdecoder/google-xss-game-walkthrough-70d801dd922
https://www.lsablog.com/networksec/penetration/google-xss-game-solutionlevel-1-6/
http://blog.dornea.nu/2014/06/02/googles-xss-game-solutions/
https://www.youtube.com/watch?v=OOLz5kgKwmg
