https://raw.githubusercontent.com/pascal-bourut/codeeval-challenges/master/moderate/84%20-%20Balanced%20Smileys/84.js
https://raw.githubusercontent.com/pascal-bourut/codeeval-challenges/master/moderate/84%20-%20Balanced%20Smileys/84.php
https://raw.githubusercontent.com/mpillar/codeeval/master/1-moderate/balanced-smileys/main.py
https://raw.githubusercontent.com/adamgriffis/code-eval-solutions/master/balanced-smileys/test.rb
