https://raw.githubusercontent.com/ZLester/Coderbyte-Solutions/master/Medium/20%20-%20Number%20Search.js
https://raw.githubusercontent.com/bolducp/coderbyte/master/medium/20_number_search.py
https://raw.githubusercontent.com/brbcoding/Coderbyte/master/Medium/NumberSearch.rb
