https://raw.githubusercontent.com/lllllll-llll-llllll/codeabbey_autoit/master/06.au3
https://raw.githubusercontent.com/phuclevinh2000/CodeAbbey/master/Rounding.c
https://raw.githubusercontent.com/spokenlore/CodeAbbey/master/Beginner/7.%20rounding/rounding.cpp
https://raw.githubusercontent.com/pastelito02/Challenges-sol/master/Programming/Codeabbey/006/slayfer1112.cr
https://raw.githubusercontent.com/Tempurturtul/CodeAbbey/master/C%23/Rounding.cs
https://raw.githubusercontent.com/skilled19/sols/master/harv/codeabbey-6-rounding.d
https://raw.githubusercontent.com/vinitkantrod/go-codeabbey/master/07_rounding/main.go
https://raw.githubusercontent.com/pastelito02/Challenges-sol/master/Programming/Codeabbey/006/tetetete.hs
https://raw.githubusercontent.com/bkawan/codeabbey_python/master/problem-6.ipynb
https://raw.githubusercontent.com/meganroche/CodeAbbeySolutions/master/Java/Round.java
https://raw.githubusercontent.com/skilled19/sols/master/harv/codeabbey-6-rounding.jl
https://raw.githubusercontent.com/DylanLenz/codeAbbey_Solutions_JavaScript/master/rounding_codeAbbey_6.js
https://raw.githubusercontent.com/chriswood/codeabbey/master/ca6.lisp
https://raw.githubusercontent.com/pastelito02/Challenges-sol/master/Programming/Codeabbey/006/danilofusco.lua
https://raw.githubusercontent.com/pastelito02/Challenges-sol/master/Programming/Codeabbey/006/stefan.schmiedl.ml
https://raw.githubusercontent.com/pastelito02/Challenges-sol/master/Programming/Codeabbey/006/vtivadze.php
https://raw.githubusercontent.com/MadcapJake/codeabbey-problems/master/perl6/rounding/rounding.pl
https://raw.githubusercontent.com/svaughnlewis/code-abbey-solutions/master/codeAbbey006_min-of-array.py
https://raw.githubusercontent.com/marclerodrigues/ruby_exercises/master/rounding.rb
https://gitlab.com/CodeArtisan/codeabbey/raw/master/problem_6/solution.rkt
https://raw.githubusercontent.com/YetAnotherMinion/YAMScratch/master/CodeAbbey/rust-sol/src/6.rs
https://raw.githubusercontent.com/mmcdon20/code_abbey/master/src/main/scala/Abbey006.scala
https://raw.githubusercontent.com/skilled19/sols/master/harv/codeabbey-6-rounding.vb
