https://www.youtube.com/watch?v=5heRmwB8IRo
https://www.youtube.com/watch?v=JzId83qMdFg
https://www.youtube.com/watch?v=ObfEI84_MtM
https://www.youtube.com/watch?v=-48zknvo7LM
https://www.youtube.com/watch?v=7aGe3_bOC90
https://www.youtube.com/watch?v=LDiXveqQ0gg
