https://raw.githubusercontent.com/rootulp/exercism/master/java/raindrops/src/main/java/Raindrops.java
https://raw.githubusercontent.com/ThomasZumsteg/exercism-javascript/master/raindrops/raindrops.js
https://raw.githubusercontent.com/rootulp/exercism/master/ruby/exercises/raindrops/raindrops.rb
https://raw.githubusercontent.com/paullepoulpe/exercism/master/scala/raindrops/src/main/scala/Raindrops.scala
