https://raw.githubusercontent.com/alialliallie/exercism-solutions/master/go/rna-transcription/rna_transcription_test.go
https://raw.githubusercontent.com/alialliallie/exercism-solutions/master/haskell/rna-transcription/rna-transcription_test.hs
https://raw.githubusercontent.com/binupaul/exercism-java-solutions/master/java/rna-transcription/src/main/java/RnaTranscription.java
https://raw.githubusercontent.com/varunu28/Exercism-Python/master/rna-transcription/rna_transcription_test.py
