https://raw.githubusercontent.com/EnterpriseQualityCoding/FizzBuzzEnterpriseEdition/uinverse/src/test/java/FizzBuzzTest.java
https://gist.githubusercontent.com/Spuffynism/50afddad5ab963e3474a35363f5522b4/raw/d9b9b0a6b11b8c6fcd97dec3c115db7d5043804e/fizzbuzz.js
https://raw.githubusercontent.com/vpcf/fizzbuzz_in_42bytes/master/shortestfizzbuzz.ps1
https://raw.githubusercontent.com/CodeGolfWhatsapp/Respostas/master/016-fizzbuzz/carlos-cg-16.py
https://gist.githubusercontent.com/JoshCheek/1462060/raw/f7e06e1e061e32570cfa28e2ca0550d2632c1723/1-fizz_buzz.rb
https://gist.githubusercontent.com/epequeno/608409b3be8a878152beffa558bc16c6/raw/655a2e16bbe1ddee900af98dc96ac7157ce37a54/fizzbuzz.rs
https://pastebin.com/raw/GfQ0HG3U
https://pastebin.com/raw/tbajQL7N
