https://raw.githubusercontent.com/hscorpion/writeups/master/plaid2019/README.md
https://raw.githubusercontent.com/Pusty/writeups/master/PlaidCTF2019/README.md
https://balsn.tw/ctf_writeup/20190413-plaidctf/
http://jakob.space/blog/plaidctf-2019.html
