https://www.youtube.com/watch?v=ySGCN56jG-Y
https://www.youtube.com/watch?v=zDjut5L_NnY
https://medium.com/write-ups-hackthebox/hackthebox-para-iniciantes-7e4a0b23f98d
https://cramhack.com/2018/09/11/htbfind-the-easy-pass-using-immunity/
