https://hackingresources.com/dc-4-vulnhub-walkthrough/
https://medium.com/infosec-adventures/dc-4-walkthrough-e37d2aef703f
https://s1gh.sh/vulnhub-dc-4/
https://aeternusmalus.wordpress.com/2019/05/17/dc-4-vulnhub-walkthrough/
https://github.com/ypc1117/vulnhub-walkthrough/blob/master/2019-09-dc4.md
