https://resources.infosecinstitute.com/hack-the-box-htb-walkthrough-friendzone/#gref
https://0xrick.github.io/hack-the-box/friendzone/
https://hackso.me/friendzone-htb-walkthrough/
https://medium.com/@preethambomma/friendzone-hackthebox-writeup-d4e71323a325
https://atalaysblog.wordpress.com/2019/07/15/hackthebox-friendzone/
https://snowscan.io/htb-writeup-friendzone/#
https://critptogen.blogspot.com/2019/07/HTB-Friendzone.html
https://medium.com/@elliot.7497/friendzone-hackthebox-write-up-2cc2f8e0cd26
https://0xdf.gitlab.io/2019/07/13/htb-friendzone.html
https://www.youtube.com/watch?v=UBBEyD27PeU
https://www.youtube.com/watch?v=ASZidqdHlYI
https://www.hackingarticles.in/hack-the-box-friendzone-walkthrough/
