https://raw.githubusercontent.com/ZLester/Coderbyte-Solutions/master/Medium/10%20-%20Letter%20Count.js
https://raw.githubusercontent.com/bolducp/coderbyte/master/medium/10_letter_count.py
https://raw.githubusercontent.com/tomyancey/coderbyte_solutions/master/letter_count.rb
