https://sivaramaaa.github.io/blog/rootme_infoleakcan.html
https://gist.github.com/toufik-airane/5fa403062d3bd73538a4
https://github.com/s1syphu5/RootMe-Challenges/tree/master/System/ELF%20x86%20-%20Information%20leakage%20with%20Stack%20Smashing%20Protector
