https://www.youtube.com/watch?v=O_ONiJi-pwI
https://www.youtube.com/watch?v=iItMZxVN2VU
https://www.youtube.com/watch?v=zCRsDHVLk68
https://www.youtube.com/watch?v=D6L5MUj53Vc
https://www.youtube.com/watch?v=0B4PTU3jBfs&t=2s
https://www.youtube.com/watch?v=NZKTuxnZlM8
https://www.youtube.com/watch?v=_T4kOuDe5dg
