https://github.com/p1o2p3u1/WeChall/blob/master/Training/MySQL_Authentication_Bypass_II.md
https://github.com/stefanoschrs/wechall/blob/master/Exploit/Exploit%20-%20MySQL%20Authentication%20Bypass%20II
https://univ-blog.xyz/entry/CTF-wechall-Training-MySQL-II-%ED%92%80%EC%9D%B4

