https://nopsrus.blogspot.com.co/2012/07/solution-for-net-forcenl-level-802-go.html
https://resources.infosecinstitute.com/defeating-steganography-solutions-to-net-force-ctf-challenges-using-practical-steganalysis/#gref

