https://raw.githubusercontent.com/DestructHub/ProjectEuler/master/Problem036/Elixir/solution_1.exs
https://raw.githubusercontent.com/DestructHub/ProjectEuler/master/Problem036/Go/solution_1.go
https://raw.githubusercontent.com/kdungs/euler/master/036/euler_36.hs
https://raw.githubusercontent.com/nayuki/Project-Euler-solutions/master/java/p036.java
https://raw.githubusercontent.com/DestructHub/ProjectEuler/master/Problem036/CommonLisp/solution_1.lisp
https://raw.githubusercontent.com/nayuki/Project-Euler-solutions/master/python/p036.py
https://raw.githubusercontent.com/DestructHub/ProjectEuler/master/Problem036/Ruby/solution_1.rb
https://raw.githubusercontent.com/sile/euler.rs/master/euler_01/src/problem036.rs
