https://raw.githubusercontent.com/kamyu104/LeetCode-Solutions/master/C%2B%2B/3sum-closest.cpp
https://gist.githubusercontent.com/lsdtc1225/c9a2f7d174fa1c7cfd37/raw/0b1d94c13c861de539a86d02ed97f32aa43238b8/3Sum%2520Closest.java
https://raw.githubusercontent.com/ck-unifr/leetcode/master/algorithms/16-3sum-closest.py
https://raw.githubusercontent.com/aylei/leetcode-rust/master/src/solution/s0016_3sum_closest.rs
