https://museljh.github.io/2019/02/09/sqli-labs%20less%2021%20~%2025/
https://blog.csdn.net/qq_21500173/article/details/51964908
https://skysec.top/2017/07/18/SQLi-LABS(Basic)(Less-1%20~%20Less-22)/
https://blog.csdn.net/Fly_hps/article/details/80285154
https://www.cnblogs.com/-qing-/p/11610385.html#_lab2_0_10
https://www.jianshu.com/p/53056d7259f4
https://www.xingmal.com/article/article/1223916066321862656
http://p0desta.com/2018/01/28/Sqli_labs%E9%80%9A%E5%85%B3%E6%96%87%E6%A1%A3/
https://github.com/WangYihang/sqli-labs/blob/master/writeup/Lesson-21.md
https://flora.gitbooks.io/web-application-security/sqli-labs_lesson_21_&_22.html
