https://raw.githubusercontent.com/rdtsc/codeeval-solutions/master/src/easy/split-the-number/solutions/c/solution.c
https://raw.githubusercontent.com/rdtsc/codeeval-solutions/master/src/easy/split-the-number/solutions/c%2B%2B/solution.cpp
https://raw.githubusercontent.com/pascal-bourut/codeeval-challenges/master/easy/131%20-%20Split%20the%20number/main.js
https://raw.githubusercontent.com/pascal-bourut/codeeval-challenges/master/easy/131%20-%20Split%20the%20number/main.php
https://raw.githubusercontent.com/mpillar/codeeval/master/0-easy/split-the-number/main.py
