https://www.youtube.com/watch?v=gDMGU3rdwfw
https://medium.com/@upendrak1994/optimum-htb-walkthrough-without-metasploit-9622641424d0
https://medium.com/@kapilvermarbl/optimum-walk-through-hackthebox-htb-7ea1432e2d11
https://ethicalhackingguru.com/hack-the-box-optimum-walkthrough/
https://steemit.com/cybersecurity/@cristi/walkthrough-for-optimum-a-vulnerable-machine-hackthebox
https://securityboulevard.com/2019/01/hack-the-box-htb-machines-walkthrough-series-optimum/
https://gist.githubusercontent.com/berzerk0/78e6af81c33e3bd5988de2adf8529e4e/raw/e7e57cc7ea201ea55ad74b724155a852ecc9bd3f/CTFWRITE-Optimum-HTB.md
https://ivanitlearning.wordpress.com/2020/08/01/hackthebox-optimum/
https://www.youtube.com/watch?v=kWTnVBIpNsE
https://www.youtube.com/watch?v=fIGvOGrdxyc
