http://winnierusli.blog.binusian.org/2018/03/02/root-me-webclient-xss-stored-1/
https://thinbashane.wordpress.com/2015/11/05/root-me-javascript-store-xss-1/
https://ctf-time.com/pentester-lab-xss-and-mysql-file-walkthrough/
http://exp-blog.com/2019/01/13/pid-2922/
http://xss-game-solved.blogspot.com/
https://www.youtube.com/watch?v=SIAKd8Ceq2I
