https://mrh4sh.github.io/de-ice-s1-120-solution
https://blog.g0tmi1k.com/2011/08/de-icenet-v12a-120a-level-1-disk/
https://www.youtube.com/watch?v=bw-Z1d0FPNE
https://www.youtube.com/watch?v=XgcqRphSkoY
http://securenetworkmanagement.com/de-ice-s1-120/
http://www.cyberry.co.uk/vulnhub/de-ice-s1-120/
https://securekite.wordpress.com/2014/05/26/hacking-de-ice-s1-120/
https://pentestwriteups.wordpress.com/2016/12/03/de-ice-s1-120/
https://blog.techorganic.com/2013/12/15/de-ice-hacking-challenge-part-5/
https://www.youtube.com/watch?v=jHBMXvI0ccQ
https://www.youtube.com/watch?v=oLM6L1_LYV0
https://www.youtube.com/watch?v=XVWE441t4-s
https://www.youtube.com/watch?v=BOVsJpuAsCs
https://medium.com/syscall59/de-ice-s1-120-walkthrough-vulnhub-f89ce697f4ae
http://blog.nullmode.com/blog/2013/11/01/de-ice-s1-dot-100-level-1-a-beginners-guide/
https://binarycoders.dev/2018/01/24/walkthrough-de-ice-s1-100/
https://stevenwivell.wordpress.com/2018/05/31/vulnhub-de-ice-s1-120-automated-ssh-script/
https://code610.blogspot.com/2018/06/de-ice-s1140-ctf.html
https://www.youtube.com/watch?v=J0z1ll-gTfU
