https://www.youtube.com/watch?v=75_HM6h_T-s
https://www.youtube.com/watch?v=-Z9qhqOGyNk
https://www.youtube.com/watch?v=RItmoDlvLKE
https://www.youtube.com/watch?v=xb3O3nlWSAw
https://www.youtube.com/watch?v=xZzVAfKj4Go
https://www.youtube.com/watch?v=DgNt_zoaPFQ
https://www.youtube.com/watch?v=LiO7ya_Da70
https://www.youtube.com/watch?v=BEtr8l0kBdA
https://www.youtube.com/watch?v=Y-U-NwlfuDE
https://www.youtube.com/watch?v=zRF-Kx9DKwM
https://www.youtube.com/watch?v=RIDAsnZRJ-Q
https://www.youtube.com/watch?v=jwn0-BKjHVI
https://www.youtube.com/watch?v=zCGOvvQknoc
https://www.youtube.com/watch?v=7H1L2y8z3hI
http://www.reydes.com/d/?q=Demostracion_de_Cross_Site_Scripting_XSS_utilizando_WebGoat
https://raw.githubusercontent.com/njZhuMin/WebGoat-7.1-Lab/master/WebGoat-Lessons/cross-site-scripting/UpdateProfileCrossSiteScripting.java
https://klarsen.net/infosec/owasp-webgoat-xss-lessons/
https://www.youtube.com/watch?v=NEhyfxq5-wA
https://parsonsisconsulting.wordpress.com/2011/02/08/reflected-cross-site-scripting-in-owasp-web-goat-source-code/
http://shubhamhacker.blogspot.com/2018/02/walkthrough-hello-guys-this-is-shubham.html
https://www.youtube.com/watch?v=7M-R6U2i5iI
https://www.youtube.com/watch?v=FvqI8x2QBGc
https://www.youtube.com/watch?v=vRBihr41JTo
https://www.youtube.com/watch?v=jK4AaeEzgjg
https://www.youtube.com/watch?v=5gp0aejzM5U
https://www.youtube.com/watch?v=9-wGxaUN49c
https://www.youtube.com/watch?v=16x5VPDg9zc
https://spencerdodd.github.io/2017/01/26/webgoat_part_8_continued/
https://github.com/WebGoat/WebGoat/wiki/(Almost)-Fully-Documented-Solution-(en)
