https://raw.githubusercontent.com/bbortt/assembly-binary-2-base32/master/base32enc.asm
https://raw.githubusercontent.com/WWelna/Base32/master/b32.c
https://raw.githubusercontent.com/madebits/cpp-base32/master/Base32.cpp
https://raw.githubusercontent.com/noumar/base32/master/src/base32.cr
https://raw.githubusercontent.com/wiry-net/Wiry.Base32/master/src/Wiry.Base32/Base32Encoding.cs
https://raw.githubusercontent.com/dnsimple/base32_erlang/master/src/base32.erl
https://raw.githubusercontent.com/pxqr/base32-bytestring/master/src/Data/ByteString/Base32.hs
https://raw.githubusercontent.com/emn178/hi-base32/master/src/base32.js
https://raw.githubusercontent.com/hargettp/cl-base32/master/base32.lisp
https://raw.githubusercontent.com/tuupola/base32/master/src/Base32.php
https://raw.githubusercontent.com/pastelito02/Challenges-sol/master/Programming/Codeabbey/206/Tyro.py
https://raw.githubusercontent.com/TypeCtrl/ts-base32/master/src/index.ts
