https://raw.githubusercontent.com/nayuki/Project-Euler-solutions/master/haskell/p287.hs
https://raw.githubusercontent.com/nayuki/Project-Euler-solutions/master/java/p287.java
https://raw.githubusercontent.com/nayuki/Project-Euler-solutions/master/python/p287.py
