https://www.youtube.com/watch?v=rtFH188ZJX8
https://www.youtube.com/watch?v=0yyi8RVfJ-w
https://www.youtube.com/watch?v=JDI-_2Yb5ZU
https://www.youtube.com/watch?v=r79ozjCL7DA
https://www.youtube.com/watch?v=SHmQ3sQFeLE
https://www.youtube.com/watch?v=V79Dp7i4LRM
https://stackoverflow.com/questions/2658922/xss-prevention-in-jsp-servlet-web-application
https://fluidattacks.com/web/es/defends/java/prevenir-xss-apache-commons/
https://security.stackexchange.com/questions/115395/how-to-prevent-reflected-xss-with-the-java-struts-framework
https://www.youtube.com/watch?v=AV38dGqQGJQ
https://maliyaablog.wordpress.com/2017/05/11/dynamic-security-analysis-for-vulnerability-detection/
https://iforensic.wordpress.com/2012/06/09/detecting-cross-site-scripting-vulnerabilities/
https://passionforpentesting.com/2018/01/13/the-bodgeit-store-series-1-level-1-xss-bodgeit-infosec-pentest-appsec-webapp-xss/
https://resources.infosecinstitute.com/the-bodgeit-store-part-1-2/#gref
https://resources.infosecinstitute.com/the-bodgeit-store-part-2/#gref
https://dzone.com/articles/reflected-xss-explained-how-to-prevent-reflected-x
https://github.com/psiinon/test/wiki/ZapMdReportTest#denial-of-service
https://maliyaablog.com/2017/05/11/dynamic-security-analysis-for-vulnerability-detection/
