https://raw.githubusercontent.com/YetAnotherMinion/YAMScratch/master/CodeAbbey/brainfuck-sol/116.bf
https://raw.githubusercontent.com/Xzya/CodeAbbeySolutions/master/SummingUp.py
https://raw.githubusercontent.com/JesseClarkND/codeabbey_BrainFudge/master/Summing%20Up
