https://raw.githubusercontent.com/ilchen/cryptopals/master/src/main/java/com/cryptopals/Set5.java
https://raw.githubusercontent.com/lt/php-cryptopals/master/Cryptopals/Set5/Challenge35/Solution35.php
https://raw.githubusercontent.com/akalin/cryptopals-python3/master/challenge35_server.py
https://raw.githubusercontent.com/technion/matasano_challenge/master/set5/chal35/chal35.rb
