https://www.hackingarticles.in/hack-the-box-teacher-walkthrough/
https://medium.com/@vj0shii/htb-teacher-walkthrough-aeaf825fb285
https://medium.com/@chennylmf/hackthebox-walkthrough-teacher-d582c6c03a63
https://0xrick.github.io/hack-the-box/teacher/
https://snowscan.io/htb-writeup-teacher/
https://0xdf.gitlab.io/2019/04/20/htb-teacher.html
https://github.com/jebidiah-anthony/htb_teacher
https://hackso.me/teacher-htb-walkthrough/
https://parasarora06.blogspot.com/2019/02/hack-box-sick-teacher.html
https://pyslash.wordpress.com/2019/04/30/writeup-teacher-hackthebox-eu/
https://ca0y1h.top/Target_drone/HackTheBox/8.HTB-Teacher-walkthrough/
