https://raw.githubusercontent.com/rdtsc/codeeval-solutions/master/src/easy/hidden-digits/solutions/c/solution.c
https://raw.githubusercontent.com/rdtsc/codeeval-solutions/master/src/easy/hidden-digits/solutions/c%2B%2B/solution.cpp
https://gist.githubusercontent.com/yuheiomori/8277417/raw/587594fb29bd8a55c18a9941d6e2ab452dabea18/main.go
https://raw.githubusercontent.com/SedaKunda/CodeEval/master/Easy-Level/HiddenDigits.java
https://raw.githubusercontent.com/rdtsc/codeeval-solutions/master/src/easy/hidden-digits/solutions/javascript/solution.js
https://raw.githubusercontent.com/pascal-bourut/codeeval-challenges/master/easy/122%20-%20Hidden%20digits/122.php
https://raw.githubusercontent.com/rdtsc/codeeval-solutions/master/src/easy/hidden-digits/solutions/python/solution.py
https://gitlab.com/agaskell/codeeval/-/raw/master/122/122.rb
