https://raw.githubusercontent.com/mmozuras/exercism/master/go/scrabble-score/scrabble_score_test.go
https://raw.githubusercontent.com/rootulp/exercism/master/java/scrabble-score/src/main/java/Scrabble.java
https://raw.githubusercontent.com/rootulp/exercism/master/javascript/scrabble-score/scrabble-score.js
https://raw.githubusercontent.com/exercism/lua/master/exercises/scrabble-score/example.lua
https://raw.githubusercontent.com/rootulp/exercism/master/python/scrabble-score/scrabble.py
https://raw.githubusercontent.com/rootulp/exercism/master/ruby/exercises/scrabble-score/scrabble.rb
