http://www.h3399.cn/201707/111479.html
http://stupidsecurity.tistory.com/41?category=760177
https://www.cloud.tencent.com/developer/article/1078965
https://net123.tistory.com/468?category=695510
https://www.youtube.com/watch?v=Q9_Q7f31R1s
https://www.youtube.com/watch?v=YkjXjsBTwPs
https://wooly6bear.files.wordpress.com/2016/01/bwapp-tutorial.pdf
