https://github.com/bsqrl/juice-shop-walkthrough#20-change-benders-password-into-slurmcl4ssic
https://bkimminich.gitbooks.io/pwning-owasp-juice-shop/content/appendix/solutions.html
https://github.com/apox64/OWASP-Juice-Shop-Write-Up/blob/master/juice-shop-writeup.md#31-change-benders-password-into-slurmcl4ssic
https://incognitjoe.github.io/hacking-the-juice-shop.html
https://bkimminich.gitbooks.io/pwning-owasp-juice-shop/content/part2/broken-authentication.html
https://www.youtube.com/watch?v=MwCxfex8bvI
