https://www.irongeek.com/i.php?page=videos/web-application-pen-testing-tutorials-with-mutillidae
https://www.youtube.com/watch?v=JZ-adC8rgaI
https://www.youtube.com/watch?v=BETwq7bnTpM
https://youtu.be/mEbmturLljU
https://youtu.be/awMpx8Bhir0
shorturl.at/gU089
https://www.youtube.com/watch?v=0_AN5FKsxaw
