https://raw.githubusercontent.com/rdtsc/codeeval-solutions/master/src/hard/ip-package/solutions/c/solution.c
https://raw.githubusercontent.com/rdtsc/codeeval-solutions/master/src/hard/ip-package/solutions/c%2B%2B/solution.cpp
https://raw.githubusercontent.com/mpillar/codeeval/master/2-hard/ip-package/main.py
