https://gitlab.com/agaskell/codeeval/-/raw/master/50/50.go
https://raw.githubusercontent.com/asimihsan/challenges/master/codeeval/StringSubstitution.java
https://raw.githubusercontent.com/pascal-bourut/codeeval-challenges/master/hard/50%20-%20String%20substitution/50.js
https://raw.githubusercontent.com/pascal-bourut/codeeval-challenges/master/hard/50%20-%20String%20substitution/50.php
https://raw.githubusercontent.com/mpillar/codeeval/master/2-hard/string-substitution/main.py
https://gitlab.com/agaskell/codeeval/-/raw/master/50/50.rb
