https://raw.githubusercontent.com/DionysiosB/CodeAbbey/master/DepthFirstSearch.cpp
https://raw.githubusercontent.com/VanceaV/codeabbey/master/src/problems_151_170/DepthFirstSearch_155.java
https://raw.githubusercontent.com/djs1193/codeabbey/master/q121.py
