https://medium.com/@bondo.mike/vulnhub-kioptrix-level-4-bc4184a79eeb
https://rastating.github.io/kioptrix-level-4-ctf-walkthrough/
https://infosecjohn.blog/posts/vulnhub-kioptrix-4/
https://zsahi.wordpress.com/2018/05/30/rooting-kioptrix-4-walkthrough/
https://nandtech.co/2017/07/16/penetration-testing-practice-hacking-kioptrix-l4/
