https://www.irongeek.com/i.php?page=videos/web-application-pen-testing-tutorials-with-mutillidae
https://youtu.be/sTTdFujJIAA
https://youtu.be/9EaNr_8D65A
https://www.youtube.com/watch?v=WzskKafhRRE
https://www.youtube.com/watch?v=PBG3ILCVous
https://www.youtube.com/watch?v=PDpWDojO2yk
https://subscription.packtpub.com/video/cloud_and_networking/9781839210495/p23/video23_3/-working-with-mutillidae
https://www.youtube.com/watch?v=GRuRK-bejgM
https://raw.githubusercontent.com/harryct229/mutillidae/master/documentation/Mutillidae-Test-Scripts.txt
http://colesec.inventedtheinternet.com/tag/mutillidae/
http://mislusnys.github.io/post/2015-02-03-owasp-top-10-in-mutillidae/
https://books.google.com.co/books?id=AvBhDwAAQBAJ&pg=PA111&lpg=PA111&dq=mutillidae+persistent+useragent&source=bl&ots=Hlq-sdbDzM&sig=ACfU3U3a4IUexJZ0e8bv64gRZLmKB_IeHg&hl=es-419&sa=X&ved=2ahUKEwiY28fXrcDnAhUCy1kKHZozAQcQ6AEwCHoECAoQAQ#v=onepage&q=mutillidae%20persistent%20useragent&f=false
