https://github.com/skiptomyliu/solutions-bwapp#os-command-injection---blind
https://wooly6bear.files.wordpress.com/2016/01/bwapp-tutorial.pdf
https://www.youtube.com/watch?v=_r_Jkr_EU2A
https://www.youtube.com/watch?v=-2Tj4YIJ5Vc
https://youtu.be/otJAYx_2pXM?t=2m33s
https://bbs.pediy.com/thread-219126.htm
https://www.youtube.com/watch?v=u5Mz9awVJvc
https://www.youtube.com/watch?v=15rBFBWiSLw
https://www.cnblogs.com/hongren/p/7169083.html
https://hk.saowen.com/a/4d44085cf747fa9a448cfc101508e59808af76715c0acc7a64b049398d6fec62
https://teckk2.github.io/web-pentesting/2018/02/07/OS-Command-Injection-Blind.html
https://www.youtube.com/watch?v=NRHG_WChdXw
https://www.youtube.com/watch?v=bb1fHPRA4VM
https://www.youtube.com/watch?v=NRHG_WChdXw&list=PLb5P0I7Dt6Rb4x-_7hNGc5qA5xUXbUUGD&index=7
https://studysecurity-world.tistory.com/59?category=806005
https://www.youtube.com/watch?v=5-1QLbVa8YE
https://www.youtube.com/watch?v=dHiv5lm2dwA
https://www.youtube.com/watch?v=JsYfEmmiox8
https://www.youtube.com/watch?v=ZJSIaaSfbps
https://www.youtube.com/watch?v=DozkVOK_oKA
https://www.youtube.com/watch?v=WakJ8ac03qs
https://www.youtube.com/watch?v=jruo8Kcf6tk
https://www.youtube.com/watch?v=91G3Z9j6bD0
https://www.youtube.com/watch?v=L_qqJvabctY
https://www.youtube.com/watch?v=8q6XLSRotno
https://www.youtube.com/watch?v=3aLVbGAfti8
https://www.youtube.com/watch?v=2nsJzLlAPmY&list=PLb5P0I7Dt6Rb4x-_7hNGc5qA5xUXbUUGD
