https://raw.githubusercontent.com/robhardwick/asmgrm/master/test.asm
https://raw.githubusercontent.com/aklomp/anagram/master/anagram.c
https://raw.githubusercontent.com/pastelito02/Challenges-sol/master/Programming/Codeabbey/127/caffene.cc
https://raw.githubusercontent.com/jakemcc/exercism-solutions/master/clojure/anagram/anagram.clj
https://raw.githubusercontent.com/blakeembrey/code-problems/master/solutions/coffeescript/anagram-detection.coffee
https://raw.githubusercontent.com/amerfarooq/CodeAbbey-Problems/master/Anagrams%20-%20Problem%20127.cpp
https://gist.githubusercontent.com/ToJans/7984691/raw/64a78865743f6cab56f875b813ac34f20a308606/anagram.cs
https://raw.githubusercontent.com/pastelito02/Challenges-sol/master/Programming/Codeabbey/127/Ratzenfutz.d
https://raw.githubusercontent.com/mcdickenson/anagrams/master/anagrams-go/anagrams.go
https://raw.githubusercontent.com/purcell/haskell-anagrams/master/Main.hs
https://raw.githubusercontent.com/KlaudioVito/CodeAbbey/master/Anagrams.java
https://raw.githubusercontent.com/pastelito02/Challenges-sol/master/Programming/Codeabbey/127/Zacharias.jl
https://raw.githubusercontent.com/pastelito02/Challenges-sol/master/Programming/Codeabbey/127/grey2010.js
https://raw.githubusercontent.com/pastelito02/Challenges-sol/master/Programming/Codeabbey/127/gerhardt_funk.lisp
https://raw.githubusercontent.com/pastelito02/Challenges-sol/master/Programming/Codeabbey/127/memstick.lua
https://raw.githubusercontent.com/pastelito02/Challenges-sol/master/Programming/Codeabbey/127/IIIIkuoaIIII.ml
https://raw.githubusercontent.com/pastelito02/Challenges-sol/master/Programming/Codeabbey/127/KOR_Ryat.php
https://raw.githubusercontent.com/pastelito02/Challenges-sol/master/Programming/Codeabbey/127/pearl_barley.pl
https://raw.githubusercontent.com/Xzya/CodeAbbeySolutions/master/Anagrams.py
https://raw.githubusercontent.com/mcdickenson/anagrams/master/script/anagram_benchmark.rb
https://raw.githubusercontent.com/tonyskn/coursera-scala/master/w6-forcomp/src/main/scala/forcomp/Anagrams.scala
https://raw.githubusercontent.com/pastelito02/Challenges-sol/master/Programming/Codeabbey/127/hamza772000.vb
https://raw.githubusercontent.com/JesseClarkND/codeabbey_in_C-NET/master/Anagrams
