https://raw.githubusercontent.com/pastelito02/Challenges-sol/master/Programming/Codeabbey/171/sebag90.cc
https://raw.githubusercontent.com/akueisara/datastructures/master/week%201/tree_height/tree-height.cpp
https://raw.githubusercontent.com/pastelito02/Challenges-sol/master/Programming/Codeabbey/171/Hennes.hs
https://raw.githubusercontent.com/DaniPhii/Tree-Height-Meter/master/Altura.java
https://raw.githubusercontent.com/pastelito02/Challenges-sol/master/Programming/Codeabbey/171/Zacharias.jl
https://raw.githubusercontent.com/pastelito02/Challenges-sol/master/Programming/Codeabbey/171/hohanga.js
https://raw.githubusercontent.com/pastelito02/Challenges-sol/master/Programming/Codeabbey/171/eric.l.anderson.lisp
https://raw.githubusercontent.com/pastelito02/Challenges-sol/master/Programming/Codeabbey/171/ayy_luamao.lua
https://raw.githubusercontent.com/pastelito02/Challenges-sol/master/Programming/Codeabbey/171/KOR_Ryat.php
https://raw.githubusercontent.com/MadcapJake/codeabbey-problems/master/perl6/rounding/rounding.pl
https://raw.githubusercontent.com/akueisara/datastructures/master/week%201/tree_height/tree-height.py
https://raw.githubusercontent.com/pastelito02/Challenges-sol/master/Programming/Codeabbey/171/maverick.rb
https://raw.githubusercontent.com/pastelito02/Challenges-sol/master/Programming/Codeabbey/171/scala_scholar.scala
https://raw.githubusercontent.com/pastelito02/Challenges-sol/master/Programming/Codeabbey/171/hamza772000.vb
https://raw.githubusercontent.com/JesseClarkND/codeabbey_in_C-NET/master/Tree%20Height%20Measurement
