https://raw.githubusercontent.com/KingMob/cryptopals-crypto-challenges/master/src/app/set3.clj
https://raw.githubusercontent.com/JarLob/MatasanoCryptoChallenge/master/Tests/Set3.cs
https://raw.githubusercontent.com/ysmolsky/cryptopals-matasano-solutions/master/24/main.go
https://raw.githubusercontent.com/ilchen/cryptopals/master/src/main/java/com/cryptopals/Set3.java
https://raw.githubusercontent.com/lt/php-cryptopals/master/Cryptopals/Set3/Challenge24/Solution24.php
https://raw.githubusercontent.com/jaybosamiya/cryptopals-solutions/master/set3/24/stream_cipher.py
https://raw.githubusercontent.com/technion/matasano_challenge/master/set3/chal24/chal24.rb
https://raw.githubusercontent.com/Daeinar/cryptopals/master/src/c24.rs
