https://raw.githubusercontent.com/rdtsc/codeeval-solutions/master/src/easy/data-recovery/solutions/c/solution.c
https://raw.githubusercontent.com/rdtsc/codeeval-solutions/master/src/easy/data-recovery/solutions/c%2B%2B/solution.cpp
https://raw.githubusercontent.com/pascal-bourut/codeeval-challenges/master/easy/140%20-%20Data%20recovery/main.js
https://raw.githubusercontent.com/pascal-bourut/codeeval-challenges/master/easy/140%20-%20Data%20recovery/main.php
https://raw.githubusercontent.com/mpillar/codeeval/master/0-easy/data-recovery/main.py
https://gitlab.com/agaskell/codeeval/-/raw/master/140/140.rb
https://raw.githubusercontent.com/jawshooah/codeeval/master/easy/data-recovery/DataRecovery.scala
