https://raw.githubusercontent.com/haotian-wu/Hackerrank_solutions/master/Greedy/beautiful-pairs.cpp
https://raw.githubusercontent.com/RodneyShag/HackerRank_solutions/master/Algorithms/Greedy/Beautiful%20Pairs/Solution.java
https://raw.githubusercontent.com/ynyeh0221/HackerRank/master/Beautiful%20Pairs.py
