https://gist.githubusercontent.com/wtsnjp/53222131fd86824858fc0b37cd9db98a/raw/68d99bdcd467a455b4ec95767239f4f9b4bb4dad/quicksort.c
https://raw.githubusercontent.com/ruippeixotog/quicksort/master/clojure/quicksort.clj
https://gist.githubusercontent.com/christophewang/ad056af4b3ab0ceebacf/raw/46d5a512c88f69c16f88c78ab09de0683de28a35/QuickSort.cpp
https://raw.githubusercontent.com/ruippeixotog/quicksort/master/c%23/Quicksort.cs
https://raw.githubusercontent.com/ruippeixotog/quicksort/master/erlang/quicksort.erl
https://raw.githubusercontent.com/ruippeixotog/quicksort/master/f%23/quicksort.fs
https://raw.githubusercontent.com/ruippeixotog/quicksort/master/go/quicksort.go
https://raw.githubusercontent.com/ruippeixotog/quicksort/master/groovy/quicksort.groovy
https://raw.githubusercontent.com/ruippeixotog/quicksort/master/haskell/quicksort.hs
https://raw.githubusercontent.com/ruippeixotog/quicksort/master/idris/quicksort.idr
https://raw.githubusercontent.com/ruippeixotog/quicksort/master/io/quicksort.io
https://raw.githubusercontent.com/KrauserSan/CodeAbbey_SolutionSet/master/Java_Solutions/QuickSort.java
https://raw.githubusercontent.com/ruippeixotog/quicksort/master/joy/quicksort.joy
https://raw.githubusercontent.com/ruippeixotog/quicksort/master/javascript/quicksort.js
https://raw.githubusercontent.com/ruippeixotog/quicksort/master/kotlin/quicksort.kt
https://raw.githubusercontent.com/ruippeixotog/quicksort/master/commonlisp/quicksort.lisp
https://raw.githubusercontent.com/ruippeixotog/quicksort/master/lua/quicksort.lua
https://raw.githubusercontent.com/ruippeixotog/quicksort/master/nim/quicksort.nim
https://raw.githubusercontent.com/ruippeixotog/quicksort/master/pascal/quicksort.pas
https://raw.githubusercontent.com/ruippeixotog/quicksort/master/php/quicksort.php
https://raw.githubusercontent.com/ruippeixotog/quicksort/master/perl/quicksort.pl
https://raw.githubusercontent.com/Xzya/CodeAbbeySolutions/master/QuickSort.py
https://raw.githubusercontent.com/ruippeixotog/quicksort/master/ruby/quicksort.rb
https://raw.githubusercontent.com/ruippeixotog/quicksort/master/racket/quicksort.rkt
https://raw.githubusercontent.com/AlexMckey/CodeAbbey_Scala/master/src/QuickSort.scala
https://raw.githubusercontent.com/ruippeixotog/quicksort/master/sml/quicksort.sml
https://raw.githubusercontent.com/ruippeixotog/quicksort/master/swift/quicksort.swift
https://raw.githubusercontent.com/JesseClarkND/codeabbey_in_C-NET/master/QuickSort
