https://raw.githubusercontent.com/HamidTheGeek/HackerRankSolutions/master/Solutions/MatrixLayerRotation.cs
https://raw.githubusercontent.com/leeychee/hackerrank/master/practice/algorithms/implementation/matrix_layer_rotation/main.go
https://raw.githubusercontent.com/charles-wangkai/hackerrank/master/matrix-rotation-algo/Solution.java
https://raw.githubusercontent.com/gabrielgiordan/hackerrank/master/algorithms/implementation/matrix-rotation-algo.js
