https://raw.githubusercontent.com/zimpha/competitive-programming/master/project-euler/volume01/47.cc
https://raw.githubusercontent.com/nayuki/Project-Euler-solutions/master/java/p047.java
https://raw.githubusercontent.com/sile/euler.rs/master/euler_01/src/problem047.rs
https://raw.githubusercontent.com/DestructHub/ProjectEuler/master/Problem047/Swift/solution_1.swift
