https://www.youtube.com/watch?v=yhci-esLBT8
https://www.youtube.com/watch?v=yhci-esLBT8&list=PLelhKCa4OeJN56V4KF-CglBV15oS7MQUK&index=5
https://www.youtube.com/watch?v=Yo2NVzZsArQ
https://raw.githubusercontent.com/apox64/OWASP-Juice-Shop-Write-Up/master/juice-shop-writeup.md
https://bkimminich.gitbooks.io/pwning-owasp-juice-shop/content/part2/xss.html
https://github.com/apox64/OWASP-Juice-Shop-Write-Up/blob/master/juice-shop-writeup.md
https://incognitjoe.github.io/hacking-the-juice-shop.html
https://n0j.github.io/2018/07/31/owasp-juice-shop-v7.3.0-level-1.html#xss-tier-0
