https://raw.githubusercontent.com/rbarril75/CodeEval/master/Longest%20Common%20Subsequence/LCS.java
https://raw.githubusercontent.com/pascal-bourut/codeeval-challenges/master/hard/6%20-%20Longest%20Common%20Subsequence/6.js
https://raw.githubusercontent.com/pascal-bourut/codeeval-challenges/master/hard/6%20-%20Longest%20Common%20Subsequence/6.php
https://raw.githubusercontent.com/mpillar/codeeval/master/2-hard/longest-common-subsequence/main.py
https://gitlab.com/agaskell/codeeval/-/raw/master/6/6.rb
