https://blog.zairo.kr/entry/Wargamekr-Challenge-Type-Confusion
https://ndb796.tistory.com/337
https://jeonyoungsin.tistory.com/31
https://newbiepwn.tistory.com/266
https://blog.choiys.kr/entry/Wargamekr-Web550type-confusion
https://blog.ch4n3.me/85
https://rootjonghyun.tistory.com/97
https://tkdrms568.tistory.com/172
https://tistory.jeongjy.kr/33
https://mandu-mandu.tistory.com/362
https://skyhell.tistory.com/47
