https://raw.githubusercontent.com/rootulp/exercism/master/java/pangram/src/main/java/Pangrams.java
https://raw.githubusercontent.com/rootulp/exercism/master/python/pangram/pangram.py
https://raw.githubusercontent.com/rootulp/exercism/master/ruby/exercises/pangram/pangram.rb
