https://raw.githubusercontent.com/texus/codingame/master/SingePlayer/Easy/Temperatures.cpp
https://raw.githubusercontent.com/pathosDev/CodinGame-Solutions/master/Puzzles/Easy/Temperatures/CSharp.cs
https://raw.githubusercontent.com/edinfazlic/CodinGame-Solutions/master/src/01-easy/Temperatures.java
https://raw.githubusercontent.com/pathosDev/CodinGame-Solutions/master/Puzzles/Easy/Temperatures/Python.py
