https://cysecguide.blogspot.com/2018/04/root-me-write-up-javascript-source.html
https://raw.githubusercontent.com/vmauricio93/Challenges-Solutions/master/hack/rootme/web-client-javascript-source/black_beard.txt
https://raw.githubusercontent.com/vmauricio93/Challenges-Solutions/master/hack/rootme/web-client-javascript-source/shamitha.txt
https://raw.githubusercontent.com/vmauricio93/Challenges-Solutions/master/hack/rootme/web-client-javascript-source/TehChimp.txt
https://raw.githubusercontent.com/vmauricio93/Challenges-Solutions/master/hack/rootme/web-client-javascript-source/the7theinherjar.txt
https://raw.githubusercontent.com/vmauricio93/Challenges-Solutions/master/hack/rootme/web-client-javascript-source/TzH.txt
http://hackinblood.com/web-client-root-me/
