https://github.com/skiptomyliu/solutions-bwapp#session-mgmt---administrative-portals
http://www.h3399.cn/201707/111479.html
https://dzone.com/articles/broken-authentication-and-session-management-part
https://youtu.be/g-HeOCMZDxE?t=13m46s
https://youtu.be/y60JLl935rI
https://youtu.be/eF7K6NAjb_c
https://seleniumbycharan.com/2017/07/30/broken-authentication-and-session-management-part-i/
https://www.youtube.com/watch?v=X7snpgGuWuc&t=5s
https://www.youtube.com/watch?v=Du8qDLEWNJY
https://www.youtube.com/watch?v=qYYmjENP6Hw
https://www.cybrary.it/0p3n/broken-authentication-session-management-part-1/
https://net123.tistory.com/477
https://blog.csdn.net/github_37216944/article/details/86658361
