https://stuffwithaurum.blog/2015/06/14/metasploitable-2-walkthrough-an-exploitation-guide/
https://kush.com.fj/blog/posts/2018-07-27-metasploitable2-walkthrough/
https://www.hackingtutorials.org/metasploit-tutorials/metasploitable-2-enumeration/
http://wg135.github.io/blog/2016/06/22/metasploitable2/
https://www.hackingtutorials.org/exploit-tutorials/metasploitable-3-exploiting-http-put/
https://www.fwhibbit.es/guia-metasploitable-2-parte-1
http://chousensha.github.io/blog/2014/06/03/pentest-lab-metasploitable-2/
https://resources.infosecinstitute.com/metasploitable-2-walkthrough/
https://null-byte.wonderhowto.com/how-to/exploit-shellshock-web-server-using-metasploit-0186084/
https://www.youtube.com/watch?v=FGUydmaEiU0
https://gr00vehack3r.wordpress.com/category/tutorials/metasploitable/page/2/
