https://raw.githubusercontent.com/StevenDunn/CodeEval/master/MersennePrimes/c/mp.c
https://raw.githubusercontent.com/mpillar/codeeval/master/0-easy/mersenne-prime/main.cpp
https://raw.githubusercontent.com/rdtsc/codeeval-solutions/master/src/easy/mersenne-prime/solutions/javascript/solution.js
https://raw.githubusercontent.com/mpillar/codeeval/master/0-easy/mersenne-prime/main.py
