https://www.youtube.com/watch?v=z2AfaU9iyr0
https://nandunb.wordpress.com/2016/10/26/hax-tor-hu-levels-12-3-and-4/
https://nandunb.wordpress.com/2016/10/25/hax-tor-hu-getting-started/
https://hyunk12.wordpress.com/2010/03/25/hax-tor-hu/
