https://alexandervoidstar.wordpress.com/2015/10/31/hackthis-real-level-3/
http://juancho056.blogspot.com/search/label/Real%20level%203
https://raw.githubusercontent.com/luceatnobis/challenges/master/hackthis.co.uk/real/3/makehash.py
