https://github.com/p1o2p3u1/WeChall/blob/master/Training/Crypto_Caesar_I.md
https://raw.githubusercontent.com/BirkhoffLee/wechall/master/exploit/Training%20Crypto%20-%20Caesar%20I/README.md
https://raw.githubusercontent.com/stefanoschrs/wechall/master/Crypto/Crypto%20-%20Caesar%20I.js
https://raw.githubusercontent.com/james9909/PracticeCTF/master/WeChall/Caesar-1/Solution.txt
https://raw.githubusercontent.com/p1o2p3u1/WeChall/master/Training/Crypto_Caesar_I.md
http://byd.dropsec.xyz/2016/03/04/WeChall_writeup/#Training-Crypto-Caesar-I
https://www.programmersought.com/article/30184204114/
https://medium.com/secttp/wechall-crypto-caesar-i-ec1a0030c8f7
https://sp4hack.blogspot.com/2012/10/we-chall-training-crypto-caesar-i.html
https://blog.csdn.net/weixin_45485719/article/details/102341948
https://resources.infosecinstitute.com/defeating-cryptography-solutions-to-net-force-ctf-challenges-using-practical-cryptanalysis/
