https://raw.githubusercontent.com/cst1201-d644/CharacterCounter/master/src/cst1201/CharacterCounter.java
https://gist.githubusercontent.com/h2non/4976332/raw/2d097d3ff28da5c53215adfebfcb796d3a88fa52/bytesCounter.js
https://gist.githubusercontent.com/JoshCheek/1462060/raw/f7e06e1e061e32570cfa28e2ca0550d2632c1723/4-string_counter.rb
https://pastebin.com/raw/ccsVL91X
