https://www.youtube.com/watch?v=ipGsJsK4QQU
https://www.youtube.com/watch?v=p_hUc8tCKzE
https://hackthissitesoltution.wordpress.com/2012/03/08/hts-realistic-mission-7/
http://4allgeeks.blogspot.com/2010/10/hackthissite-realistic-mission-7.html
http://sp4hack.blogspot.com/2012/09/hack-this-site-realistic-7.html
https://www.aldeid.com/wiki/Hackthissite/Realistic/Level7
https://www.youtube.com/watch?v=5NxUr3p0MCQ
https://raw.githubusercontent.com/luceatnobis/challenges/master/hackthissite.org/real/7/hash
http://zer0byte.com/2011/11/14/hackthissite-org-realistic-mission-1-%E2%80%93-16-walk-throughs/
