31
10911225190547967625 8927574305075196358 6852652248189405847
325641209161874186 1737097205106543683 10725455775188823208
3075406291125495154 6511825319817150021 7601208441871916552
3297593277748539572 10375336632185490439 3935246194776013038
8584085969491667700 1313465789700587859 954247501300790578
16307743695574524315 15177562963595078102 11521414492472216557
688283848971123426 2187339717010518029 9471062659599554180
9093319898909841142 15350940114042609943 4561262896362090052
8128328808916047438 18062719146792125093 5700364701326470592
3343467591207803231 16908189371642570944 3210895027036526437
1255714528944227047 12339156746321840522 5050977918125571697
18425008082228389913 12161794220052096018 12984047135706799643
7525579081919988640 1887227649837992631 15335772108455790054
11808918349245021255 14868603051537143196 12822537933759301297
1988735387490037234 15283961637195817953 7868098555535463800
5035791547604047891 15576950707529377002 2122910901566473517
17186336195522251880 16679875048721710899 9755092312162760618
7944895748963983078 2177582089663335919 2526723727821554456
9984709089774050190 9149797741798196651 1552927324708546512
8145919437932483526 6353145067617747589 9071817399383656840
14522387444464615234 9838560659087751857 10143991683324871596
5836092526267860305 16823651188598775144 1772806156343687763
2083626793668004215 8483654980002372584 15126904808686348841
11603921922230326305 347278432204004638 9217637969631449791
14604071869995368561 10459979165058125144 11749263446724400159
11280193013039721897 1204361080501782922 8770647727014761355
16285878455980027665 4412870529210828382 15540645967094369027
5240825913150734758 7302076307045143225 3078965385164799476
14905645285614204112 12789338274022403851 4122983296364627266
11921815209731675589 10243928406743486030 16175192536512699547
13354792595064121647 13563293928507726450 1595902079620576469
