https://raw.githubusercontent.com/BOAKGP/CTF-Writeups/master/ASIS%20CTF%20Quals%202018/Nice%20Code/README.md
https://rawsec.ml/en/asis-2018-quals-write-up/#nice-code-web
https://ctftime.org/writeup/9910
