https://raw.githubusercontent.com/igor-kutepov/codeabbey/master/src/main/java/com/kutepov/samples/codeabbey/TreeBuilder.java
https://raw.githubusercontent.com/kazamari/CodeAbbey/master/087_tree-builder.py
https://raw.githubusercontent.com/YetAnotherMinion/YAMScratch/master/CodeAbbey/rust-sol/src/87.rs
https://raw.githubusercontent.com/mmcdon20/code_abbey/master/src/main/scala/Abbey087.scala
https://raw.githubusercontent.com/JesseClarkND/codeabbey_in_C-NET/master/Tree%20Builder
