https://raw.githubusercontent.com/TimonKnigge/Competitive-Programming/master/CodeForces/cf-495a.cpp
https://raw.githubusercontent.com/o-panda-o/MySolutions/master/Implementation/Code_495A_DigitalCounter.java
https://raw.githubusercontent.com/changyuheng/codeforces-solutions/master/495a.py
