https://www.jianshu.com/p/5a95a40439b4
https://www.cnblogs.com/lcamry/p/5762973.html
https://museljh.github.io/2019/02/11/sqli-labs%20less%2026%20~%2030/
http://lz2y.top/index.php/2020/02/sqli-labs-less-23-to-less-28a/
https://www.itdaan.com/tw/329716b25dee638f45e8b767fd25241c
https://www.youtube.com/watch?v=qWUELXgQtWU
https://www.youtube.com/watch?v=zh0w1InjEus
https://www.youtube.com/watch?v=Pb4m1mY6OPI
https://flora.gitbooks.io/web-application-security/content/sqli-labs_lesson_54.html
https://portswigger.net/web-security/sql-injection/union-attacks
https://portswigger.net/web-security/sql-injection/union-attacks/lab-retrieve-data-from-other-tables
https://cloudacademy.com/blog/think-like-a-hacker-sql-injection-lab/
https://www.programmersought.com/article/56534553368/
https://www.programmersought.com/article/76482977349/
