https://www.hackingarticles.in/hack-the-box-vault-walkthrough/
https://www.hacktoday.io/t/hack-the-box-vault-writeups/2553
https://medium.com/write-ups-hackthebox/c%C3%B3mo-resolver-vault-13fb2bc87f42
https://hackso.me/vault-htb-walkthrough/
https://medium.com/@chayanjain990/hackthebox-vault-54029f0acbd0
https://www.youtube.com/watch?v=RHLHUwamT5U
https://sckullbock.blogspot.com/2019/04/hackthebox-vault-writeup.html
https://www.jianshu.com/p/f42a3c994348
https://0xrick.github.io/hack-the-box/vault/
https://github.com/Hackplayers/hackthebox-writeups/tree/master/machines/Vault
https://snowscan.io/htb-writeup-vault/
https://thehacktoday.com/hack-the-box-vault-walkthrough/
https://www.hackiit.cf/hack-the-box-vault/
https://t3chnocat.com/htb-vault/
https://epi052.gitlab.io/notes-to-self/blog/2018-11-04-hack-the-box-vault/
https://github.com/limbernie/limbernie.github.io/tree/master/assets/images/posts/vault-htb-walkthrough
