https://raw.githubusercontent.com/Gamer1092/Coderbyte/Easy/Swap%20Case.cpp
https://raw.githubusercontent.com/Nigelmnz/CoderbyteSolutions/master/24-SwapCase/24.hs
https://raw.githubusercontent.com/ZLester/Coderbyte-Solutions/master/Easy/24%20-%20Swap%20Case.js
https://raw.githubusercontent.com/90capsules/90capsules_coderbyte/master/SwapCase.rb
https://raw.githubusercontent.com/designerGenes/CoderbyteInSwift/master/SwapCase/SwapCase.playground/Contents.swift
