https://raw.githubusercontent.com/mukarramkhalid/WeChall/master/blinded_by_the_light.py
https://github.com/CyrilP/wechall/blob/master/BlindedByTheLight.java
http://www.hackdig.com/02/hack-18982.htm
https://libraries.io/github/CyrilP/wechall
https://mukarramkhalid.com/solution-blinded-by-the-light/
