https://vinegrep.blogspot.com.co/2017/05/hackademic-rtb2-walkthrough.html
https://blog.g0tmi1k.com/2012/01/hackademic-rtb2/
http://carlosrodallega.blogspot.com.co/2012/01/esta-es-la-entrada-ejemplo-dsf-dsdf.html
http://forelsec.blogspot.com.co/2012/11/solving-hackademic-rtb2.html
http://devloop.users.sourceforge.net/index.php?article77/solution-du-ctf-hackademic-rtb2
http://bullsecurity.blogspot.com.co/2015/09/hackademic-rtb2-walkthru.html
https://chousensha.github.io/blog/2016/07/20/pentest-lab-hackademic-rtb2/
http://hatriot.github.io/blog/2012/11/18/solving-hackademic-rtb2/
https://www.aldeid.com/wiki/Hackademic-RTB2
https://youtu.be/Ou3YhGMxvjY
https://infamoussyn.wordpress.com/tag/hackademic-rtb-2/
https://l33thacker.com/hackademic-rtb2-walkthrough/
http://sudokom.web.id/art-webshell-port-knocking-exploit-hackademic-rtb2/
https://rgolebiowski.blogspot.com/2016/01/hackademic-2.html
