https://hdivsecurity.com/owasp-missing-function-level-access-control
https://support.portswigger.net/customer/portal/articles/1965720-using-burp-to-test-for-missing-function-level-access-control
https://kemptechnologies.com/blog/owasp-top-ten-series-missing-function-level-access-control/
https://www.c-sharpcorner.com/article/missing-function-level-access-control-and-its-prevention-mechanism/
https://www.vdalabs.com/2018/01/12/rails-vulnerabilities-find-part-1/
https://blog.detectify.com/2016/07/13/owasp-top-10-missing-function-level-access-control-7/
https://www.youtube.com/watch?v=XfaRbV9WZ5o
https://www.youtube.com/watch?v=df7NM81N_zk
https://studylib.net/doc/5407868/hands-on-with-railsgoat-web-application-security-testing-
https://www.linuxsecrets.com/owasp-wiki/index.php/Ruby_on_Rails_Cheatsheet.html
https://github.com/OWASP/railsgoat/wiki/A7-Missing-Function-Level-Access-Control
