https://www.youtube.com/watch?v=k8GIh27XBsc
https://cysecguide.blogspot.com/2018/04/root-me-write-up-javascript.html
https://codeasy.nl/hacking/root-me-antwoorden/javascript-authentication/
https://www.youtube.com/watch?v=HPquC7QFOP4
https://www.youtube.com/watch?v=GA3CoJguhc0
https://penpester.wordpress.com/2015/06/17/root-me-org-web-client-challenge-javascript-authentication/
https://github.com/RomaniukVadim/wargaming-challenges/blob/master/RootMe/web-client/js-authentication-1.txt
https://powerprove.tistory.com/entry/rootmeorg-web-client-Javascript-Authentication
