https://raw.githubusercontent.com/danhenriquesc/hackerrank/master/algorithms/implementation/breaking_best_and_worst_records.cpp
https://raw.githubusercontent.com/RyanFehr/HackerRank/master/Algorithms/Implementation/Breaking%20the%20Records/Solution.cs
https://raw.githubusercontent.com/irlndts/go-hackerrank/master/UniversityCodeSprint2/breakingtherecords.go
https://raw.githubusercontent.com/charles-wangkai/hackerrank/master/breaking-best-and-worst-records/Solution.java
https://raw.githubusercontent.com/gabrielgiordan/hackerrank/master/algorithms/implementation/breaking-best-and-worst-records.js
https://raw.githubusercontent.com/sapanz/Hackerrank-Python-Solutions/master/HackerRank-Breaking%20the%20Records/Breaking_the_Records.py
https://raw.githubusercontent.com/raghav97/Hackerrank-Solutions/master/breaking_the_records.rb
https://raw.githubusercontent.com/witekbobrowski/HackerRank/master/Algorithms/Implementation/breaking-the-records.swift
