https://raw.githubusercontent.com/nayuki/Project-Euler-solutions/master/java/p049.java
https://raw.githubusercontent.com/DestructHub/ProjectEuler/master/Problem049/Python/solution_1.py
https://raw.githubusercontent.com/sile/euler.rs/master/euler_01/src/problem049.rs
