https://www.youtube.com/watch?v=-B8Ajen2d1Y
https://www.youtube.com/watch?v=ZodA76-CB10
https://www.youtube.com/watch?v=-iCyp9Qz3CI
https://www.youtube.com/watch?v=zBQqJfLNm2I
https://www.youtube.com/watch?v=TJXcX3KWWwc
https://www.youtube.com/watch?v=jLk-s-IpEX4
https://www.youtube.com/watch?v=g-HeOCMZDxE
https://www.youtube.com/watch?v=KI6OKL6w0V4
https://www.youtube.com/watch?v=ptT5sMLH3Ks
https://www.youtube.com/watch?v=KI6OKL6w0V4&index=3&list=PLNw_ZmdDtLdYmRP6nEBOn0wATNOR8utBu
