https://raw.githubusercontent.com/TheCK/codeChallenges/master/codeEval/src/main/java/org/ck/codeEval/medium/uriComparison/Main.java
https://raw.githubusercontent.com/pascal-bourut/codeeval-challenges/master/moderate/80%20-%20URI%20Comparison/80.js
https://raw.githubusercontent.com/mneudert/codeeval/master/moderate/uri-comparison/php.php
https://raw.githubusercontent.com/mpillar/codeeval/master/1-moderate/uri-comparison/main.py
https://gitlab.com/agaskell/codeeval/-/raw/master/80/80.rb
