https://raw.githubusercontent.com/DDOS-Attacks/ctf-writeups/master/2017/Google%20Capture%20The%20Flag%202017%20-Quals/Reversing/Food/README.md
https://raw.githubusercontent.com/tothi/ctfs/master/google-ctf-2017/re/food/README.md
https://www.leadroyal.cn/?p=152
