https://raw.githubusercontent.com/derekhh/HackerRank/master/Algorithms/Sorting/countingsort3.cpp
https://raw.githubusercontent.com/RyanFehr/HackerRank/master/Algorithms/Sorting/Counting%20Sort%203/Solution.java
https://raw.githubusercontent.com/raghav97/Hackerrank-Solutions/master/counting_sort_3.rb
