https://raw.githubusercontent.com/eagletmt/project-euler-c/master/1-9/problem4.c
https://raw.githubusercontent.com/zimpha/competitive-programming/master/project-euler/volume01/4.cc
https://raw.githubusercontent.com/danielfm/euler-clojure/master/euler/problem_4.clj
https://raw.githubusercontent.com/EaterOA/Euler/master/1-25/euler004.cpp
https://raw.githubusercontent.com/DestructHub/ProjectEuler/master/Problem004/Elixir/solution_1.exs
https://raw.githubusercontent.com/jmoiron/euler.go/master/004.go
https://raw.githubusercontent.com/nayuki/Project-Euler-solutions/master/haskell/p004.hs
https://raw.githubusercontent.com/nayuki/Project-Euler-solutions/master/java/p004.java
https://raw.githubusercontent.com/johnmyleswhite/projecteuler.jl/master/004.jl
https://raw.githubusercontent.com/necolas/project-euler/master/004/004.js
https://raw.githubusercontent.com/DestructHub/ProjectEuler/master/Problem004/CommonLisp/solution_1.lisp
https://raw.githubusercontent.com/DestructHub/ProjectEuler/master/Problem004/Lua/solution_1.lua
https://raw.githubusercontent.com/lilyball/projecteuler-ocaml/master/prob4.ml
https://raw.githubusercontent.com/fedeisas/project-euler/master/04/run.php
https://raw.githubusercontent.com/jpillora/euler-in-perl/master/004.pl
https://raw.githubusercontent.com/DestructHub/ProjectEuler/master/Problem004/Python/solution_1.py
https://raw.githubusercontent.com/DestructHub/ProjectEuler/master/Problem004/Ruby/solution_01.rb
https://raw.githubusercontent.com/zsiciarz/euler.rs/master/src/solutions/problem4.rs
https://raw.githubusercontent.com/samskivert/euler-scala/master/Euler004.scala
https://raw.githubusercontent.com/nayuki/Project-Euler-solutions/master/mathematica/p004.mathematica
