https://raw.githubusercontent.com/StevenDunn/CodeEval/master/NotSoClever/c/nsc.c
https://raw.githubusercontent.com/StevenDunn/CodeEval/master/NotSoClever/cpp/nsc.cpp
https://raw.githubusercontent.com/mpillar/codeeval/master/0-easy/not-so-clever/main.go
https://raw.githubusercontent.com/rdtsc/codeeval-solutions/master/src/easy/not-so-clever/solutions/javascript/solution.js
https://raw.githubusercontent.com/rdtsc/codeeval-solutions/master/src/easy/not-so-clever/solutions/php/solution.php
https://raw.githubusercontent.com/mpillar/codeeval/master/0-easy/not-so-clever/main.py
