https://raw.githubusercontent.com/antonio-ramadas/mindera-challenge/master/src/main.cpp
https://raw.githubusercontent.com/yusufsancakk/Bouncing-Balls/9474bbd5f6e3cb4dc3db53c7f1464c8a832d6eb7/Assets/MyFolder/GameScripts/ColorController.cs
https://gist.githubusercontent.com/lgoldstien/7931016/raw/41b53619a9c3c88f581d95bfe5485ca0b21f7962/golang-gameoflife.go
https://raw.githubusercontent.com/danrevah/php-exercises/master/word-search/test.php
https://raw.githubusercontent.com/jmcnamara/excel-writer-xlsx/master/lib/Excel/Writer/XLSX/Examples.pm
https://raw.githubusercontent.com/laurentluce/python-algorithms/master/algorithms/a_star_path_finding.py
https://raw.githubusercontent.com/andersondias/conway-game-of-life-ruby/master/spec/game_of_life_spec.rb
https://gist.githubusercontent.com/cloudbank/703e09268dd69f06392743cfd6b47f11/raw/cdbbddf051445c719e89438e26bb2fbd2c2bebe1/SearchMazeBFS
