https://raw.githubusercontent.com/Nigelmnz/CoderbyteSolutions/master/13-WordCount/13.hs
https://raw.githubusercontent.com/TheAaronCovington/Java-Coderbyte-Solutions/master/13WordCount.java
https://raw.githubusercontent.com/ZLester/Coderbyte-Solutions/master/Easy/13%20-%20Word%20Count.js
https://raw.githubusercontent.com/alecashford/Coderbyte-Solutions-Python/master/word_count.py
https://raw.githubusercontent.com/juyongsim/coderbyte/master/WordCount.rb
