https://www.hackingarticles.in/djinn1-vulnhub-walkthrough/
https://medium.com/@prasenjitkantipaul/vulnhub-djinn-1-walkthrough-f874c2e5f0ab
https://www.hacknos.com/djinn-1-vulnhub-walkthrough/
https://developpaper.com/djinn1-vulnhub-walkthrough/
https://www.maritimecybersecurity.center/djinn1-vulnhub-walkthrough/
https://www.embeddedhacker.com/2019/12/hacking-walkthrough-thm-djinn/
https://www.cnblogs.com/hack404/p/12131937.html
