https://raw.githubusercontent.com/mzet-/ctf-writeups/master/DVWA/dvwa-low.md
https://raw.githubusercontent.com/mzet-/ctf-writeups/master/DVWA/dvwa-medium.md
https://raw.githubusercontent.com/mzet-/ctf-writeups/master/DVWA/dvwa-hard.md
https://computersecuritystudent.com/SECURITY_TOOLS/DVWA/DVWAv107/lesson9/index.html
http://www.fuzzysecurity.com/tutorials/4.html
http://www.hackingarticles.in/stored-xss-exploitation-dvwa-beginner-guide/
https://github.com/sheimo/DVWA-Answers#csrf-you-can-send-this-link-to-an-admin-user-or-xss-it
https://redinfocol.org/dvwa-conociendo-y-explotando-diferentes-vulnerabilidades-level-low/
https://www.youtube.com/watch?v=7ImIXBvm7Ac&t=0s&list=PLYG-FZ4DA0VpYLEoDWou8pu3xEyI5N-N2&index=7
http://www.hackingarticles.in/xss-exploitation-dvwa-bypass-security/
https://www.youtube.com/watch?v=8hNUWlDsALw&index=10&list=PLZUQcQP4Xtlp64Q6tzw8GdLsOweBsKDSs
http://www.tapost.org/wp-content/uploads/2016/10/3_s2_t3_1_Aigars-Naglis_Alise-Silde-LV.pdf
https://www.youtube.com/watch?v=fVuWl4mZqo0
http://www.hackingmonks.net/p/cross-site-scripting-xss.html
https://youtu.be/J7fVOyhIX1c
https://youtu.be/Zkb1fZjNRLc
https://youtu.be/lpoa02eC9a0
https://youtu.be/6-WM7K1Q_bA
https://youtu.be/5klgwBYBFrc
https://youtu.be/h5xAsaACc64
https://youtu.be/EHSMwe1Xpzs
https://www.information-security.fr/dvwa-solutions-protections-file-inclusion-xss/
https://www.youtube.com/watch?v=ivvTrTie16I
https://www.youtube.com/watch?v=kwXFvhNhQaM
https://www.youtube.com/watch?v=Z64ND27NHFA
https://www.youtube.com/watch?v=Um7pTI5rzRc
https://www.youtube.com/watch?v=bC10UV8cWUw
https://www.youtube.com/watch?v=YrBqP5HVAHM
https://www.youtube.com/watch?v=dr-bb3EKaeI
https://www.youtube.com/watch?v=EmGkdI6QfMQ
https://drive.google.com/open?id=1fmZkOjQL8btpLG8wnV5Gatj-caryPhLi
https://drive.google.com/open?id=1_Yded3yNk9Qr0Bv3LZ2eBWim_uGALajp
https://drive.google.com/open?id=10NKsEKgBCBQGt47QiffH9IYszo4v4yEI
https://raw.githubusercontent.com/sheimo/DVWA-Answers/master/README.md
https://github.com/sheimo/DVWA-Answers#xss-reflected-low
https://www.youtube.com/watch?v=t2CasMxBSB4
https://www.hackingarticles.in/xss-exploitation-dvwa-bypass-security/
https://raw.githubusercontent.com/keewenaw/dvwa-guide-2019/master/low/Challenge%2010%3A%20XSS%20(DOM).md
https://raw.githubusercontent.com/keewenaw/dvwa-guide-2019/master/medium/Challenge%2011%3A%20XSS%20(Reflected).md
https://chousensha.github.io/blog/2014/08/08/pentest-lab-damn-vulnerable-web-application/
http://www.reydes.com/d/?q=XSS_Cross_Site_Scripting
https://lepouvoirclapratique.com/blog/wp-content/uploads/2018/01/UE_Cybersecurite-TP_DVWA_v0.6.pdf#23
https://ocw.cs.pub.ro/courses/cns/extra/web-app-security-02
https://le4ker.me/tech/2017/04/15/dvwa-xss.html
https://blog.csdn.net/SCNU_Jiechao/article/details/54140435
http://lawlietweb.com/2017/12/21/DOM%20XSS/
http://red-orbita.com/?p=4148
https://www.cnblogs.com/jojo-feed/p/10188380.html
https://securitycode.tistory.com/61
https://resources.infosecinstitute.com/introduction-owasp-zap-web-application-security-assessments/#gref
http://10degres.net/dvwa-xss-reflected/
https://raw.githubusercontent.com/pgaijin66/XSS-Payloads/master/payload.txt
https://raw.githubusercontent.com/swisskyrepo/PayloadsAllTheThings/master/XSS%20Injection/Intruders/XSSDetection.txt
https://www.youtube.com/watch?v=Ya6nCQSQQ6Q
https://www.youtube.com/watch?v=9WxtpOUGV8U
https://raw.githubusercontent.com/payloadbox/xss-payload-list/master/Intruder/xss-payload-list.txt
