https://raw.githubusercontent.com/s1syphu5/RootMe-Challenges/master/System/ELF%20x86%20-%20Stack%20buffer%20overflow%20basic%201/README.md
https://gitlab.com/rsheasby/root-me-app-system/-/raw/master/05.%20ELF%20x86%20-%20Stack%20buffer%20overflow%20basic%201/instructions.md
https://raw.githubusercontent.com/ngoctint1lvc/rootme-app-system/master/elfx86-stack-buffer-overflow-basic-1/readme.md
