https://raw.githubusercontent.com/ThaWeatherman/eg_solutions/master/crypto/1.txt
https://raw.githubusercontent.com/iandioch/solutions/master/enigmagroup/cryptography/1/solution.md
https://raw.githubusercontent.com/djcomidi/enigmagroup/master/decryptions/cryptography01.py
