https://alexandervoidstar.wordpress.com/2015/10/11/hackthis-crypt-level-4/
https://www.youtube.com/watch?v=tccUmlgkU-M
http://c6h4cl2.lab.uy.to/676
http://sithlab.tistory.com/676
https://www.youtube.com/watch?v=mLBPR65zfbo
https://www.youtube.com/watch?v=Z9eGojDmqH4
https://www.youtube.com/watch?v=k9oN-5vwVT4
https://sithlab.tistory.com/676
