http://leesinc1.top/2018/03/19/solveme-web-writeup/
https://chaneyoon.tistory.com/364?category=727046
https://kele1997.xyz/2018/03/15/solveme-writeup/
https://blog.ch4n3.me/364
https://jeonyoungsin.tistory.com/448?category=811563
https://tistory.jeongjy.kr/45
