https://www.youtube.com/watch?v=TrWda1AwyAA
https://www.youtube.com/watch?v=Hrt32bPuxBA
https://portswigger.net/kb/issues/00500600_cookie-without-httponly-flag-set
https://www.owasp.org/index.php/HttpOnly
https://www.youtube.com/watch?v=qnhcL-5_OCk
https://www.youtube.com/watch?v=4_vhOLiZ49M
https://www.youtube.com/watch?v=6fxycrATgBE
https://www.youtube.com/watch?v=yalTGYtPoK0
http://de1.php.net/setcookie
https://stackoverflow.com/questions/13075003/session-cookie-without-httponly-flag-set
http://sefcom.asu.edu/publications/black-box-scanners-dimva2010.pdf
http://wapiti.sourceforge.net/example.txt
