https://raw.githubusercontent.com/mneudert/codeeval/master/easy/swap-case/c.c
https://raw.githubusercontent.com/mneudert/codeeval/master/easy/swap-case/cpp.cpp
https://raw.githubusercontent.com/mneudert/codeeval/master/easy/swap-case/cs.cs
https://raw.githubusercontent.com/mneudert/codeeval/master/easy/swap-case/go.go
https://raw.githubusercontent.com/jonyamo/CodeEval/master/haskell/src/SwapCase.hs
https://raw.githubusercontent.com/Aadeshp/Codeeval-Solutions/29af977f30e6c5e5823e1e34ecd6de3c77506682/Easy/Swap_Case.java
https://raw.githubusercontent.com/mneudert/codeeval/master/easy/swap-case/js.js
https://raw.githubusercontent.com/pascal-bourut/codeeval-challenges/master/easy/96%20-%20Swap%20Case/96.php
https://raw.githubusercontent.com/leaen/Codeeval-solutions/master/swap-case.py
