1 2 addition  2 3
1 2 addition -2 3
-1 2 addition -2 3
1 2 addition -1 2
1 2 subtraction 2 3
1 2 subtraction -2 3
-1 2 subtraction -2 3
1 2 subtraction 1 2
1 2 multiplication 2 3
-1 2 multiplication 2 3
-1 2 multiplication -2 3
1 2 multiplication 2 1
1 2 multiplication 1 1
1 2 multiplication 0 1
1 2 division 2 3
1 2 division -2 3
-1 2 division -2 3
1 2 division 1 1
1 2  absolute
-1 -2  absolute
-1 2  absolute
1 -2  absolute
0 1  absolute
1 2  exponentiation 3
-1 2  exponentiation 3
0 1  exponentiation 5
1 1  exponentiation 4
1 2  exponentiation 0
-1 2  exponentiation 0
8  exponentiationrealnumber 4 3
9  exponentiationrealnumber -1 2
2  exponentiationrealnumber 0 1
2 4 reduction 1 2
-4 6 reduction -2 3
3 -9 reduction -1 3
0 6 reduction 0 1
-14 7 reduction -2 1
13 13 reduction 1 1
