https://www.youtube.com/watch?v=Iwd7C6fx2fw
https://www.youtube.com/watch?v=q920I6HbFdo
https://www.youtube.com/watch?v=ufPIQVpk6Fw
http://www.erogol.com/sql-injection-hack-this-site-realistic-mission-2/
http://4allgeeks.blogspot.com/2010/10/hackthissite-realistic-mission-2.html
http://www.gensale.net/hts-basic-level-5/
https://null-byte.wonderhowto.com/news/goodnight-byte-hackthissite-realistic-2-real-hacking-simulations-0133066/
https://www.youtube.com/watch?v=_j0DiqqT9oo
https://www.aldeid.com/wiki/Hackthissite/Realistic/Level2
http://zer0byte.com/2011/11/14/hackthissite-org-realistic-mission-1-%E2%80%93-16-walk-throughs/
https://www.hackingcastle.com/2020/01/hack-this-site-info-walkthrough.html
https://medium.com/@sgrchaudhari141/hack-this-site-info-walkthrough-and-review-79b60371af64
