http://www.google-gruyere.appspot.com/part4#4__information_disclosure_path_traversal
http://m4l1ce.me/writeups/2017/03/28/google-gruyere.html
https://pdfs.semanticscholar.org/presentation/65a0/5e2cfdf246dcf09238ad341d71df2696606a.pdf
https://samsclass.info/120/proj/p2x-Gruyere.html
