https://raw.githubusercontent.com/nayuki/Project-Euler-solutions/master/haskell/p052.hs
https://raw.githubusercontent.com/nayuki/Project-Euler-solutions/master/java/p052.java
https://raw.githubusercontent.com/kdungs/euler/master/052/euler_52.py
https://raw.githubusercontent.com/DestructHub/ProjectEuler/master/Problem052/Ruby/solution_1.rb
https://raw.githubusercontent.com/sile/euler.rs/master/euler_02/src/problem052.rs
