https://github.com/bsqrl/juice-shop-walkthrough#12-get-rid-of-all-5-star-customer-feedback
https://bkimminich.gitbooks.io/pwning-owasp-juice-shop/content/appendix/solutions.html
https://github.com/apox64/OWASP-Juice-Shop-Write-Up/blob/master/juice-shop-writeup.md#4-get-rid-of-all-5-star-customer-feedback
https://incognitjoe.github.io/hacking-the-juice-shop.html
https://n0j.github.io/2018/08/01/owasp-juice-shop-v7.3.0-level-2.html
https://bestestredteam.com/2018/07/07/juice-shop-walkthrough-2-star/
https://www.youtube.com/watch?v=WWxqff4_AoY
https://raw.githubusercontent.com/refabr1k/owasp-juiceshop-solutions/master/Level2/five-star-feedback.md
