http://www.voidcn.com/article/p-xpmsfmgb-bbq.html
https://github.com/p1o2p3u1/WeChall/blob/master/Training/ASCII.md
http://sp4hack.blogspot.com/2012/10/we-chall-training-ascii.html
https://raw.githubusercontent.com/BirkhoffLee/wechall/master/exploit/Training%20ASCII/README.md
https://raw.githubusercontent.com/arma26/challenge/master/wechall.py
https://raw.githubusercontent.com/james9909/PracticeCTF/master/WeChall/ASCII/Solution.py
https://raw.githubusercontent.com/lc4t/OtherFiles/master/md/WeChall.md
https://gist.github.com/trietptm/5553757
https://sithlab.tistory.com/1093
http://byd.dropsec.xyz/2016/03/04/WeChall_writeup/#Training-PHP-LFI
https://github.com/BirkhoffLee/wechall/tree/master/exploit/Training%20ASCII
https://www.programmersought.com/article/68504263501/
