https://www.youtube.com/watch?v=5gKvhgTWxjU
https://www.youtube.com/watch?v=giuDVkF4zyU
https://forum.hackthebox.eu/discussion/17/lame-write-up-by-arrexel
https://deceiveyour.team/2017/12/05/hack-the-box-lame-walkthrough/
https://codemonkeyism.co.uk/htb-lame/
https://teckk2.github.io/writeup/2017/12/17/Lame.html
https://video.hacking.reviews/2018/01/hack-box-ctf-walkthrough-blocky-and-lame.html
https://medium.com/@sdgeek/hack-the-box-htb-lame-597810e98978
https://www.youtube.com/watch?v=Ru8YxARNS7M
