https://raw.githubusercontent.com/nayuki/Project-Euler-solutions/master/haskell/p205.hs
https://raw.githubusercontent.com/nayuki/Project-Euler-solutions/master/java/p205.java
https://raw.githubusercontent.com/nayuki/Project-Euler-solutions/master/python/p205.py
