https://aquaorinfosec.tistory.com/64
https://kienmanowar.wordpress.com/category/reversing-kr-some-write-ups/chal13-autohotkey1-challenge/
https://raw.githubusercontent.com/DoubleLabyrinth/reversing.kr/master/AutoHotkey1/fix.c
