https://raw.githubusercontent.com/rdtsc/codeeval-solutions/master/src/hard/package-problem/solutions/c/solution.c
https://raw.githubusercontent.com/rdtsc/codeeval-solutions/master/src/hard/package-problem/solutions/c%2B%2B/solution.cpp
https://raw.githubusercontent.com/pascal-bourut/codeeval-challenges/master/hard/114%20-%20Package%20Problem/114.js
https://raw.githubusercontent.com/pascal-bourut/codeeval-challenges/master/hard/114%20-%20Package%20Problem/114.php
https://raw.githubusercontent.com/mpillar/codeeval/master/2-hard/package-problem/main.py
https://gitlab.com/agaskell/codeeval/-/raw/master/114/114.rb
