https://gitlab.com/agaskell/codeeval/-/raw/master/13/13.go
https://raw.githubusercontent.com/Aadeshp/Codeeval-Solutions/master/Medium/Remove_Characters.java
https://raw.githubusercontent.com/mpillar/codeeval/master/1-moderate/remove-characters/main.py
https://gitlab.com/agaskell/codeeval/-/raw/master/13/13.rb
