https://www.hackingarticles.in/sunset-dusk-vulnhub-walkthrough/
https://www.hacknos.com/sunset-dusk-walkthrough-vulnhub-ctf/
http://alickgardiner.com/sunsetdusk/
https://developpaper.com/sunset-dusk-vulnhub-walkthrough/
https://blog.mzfr.me/vulnhub-writeups/2019-12-10-dusk
https://www.youtube.com/watch?v=IcduTgM8fzw
https://www.ehacking.net/2020/02/sunset-dusk-vm-walkthrough.html
https://medium.com/@andr3w_hilton/sunset-dusk-vulnhub-com-846d66a2c072
https://www.newsbreak.com/news/1503362957494/sunset-dusk-vm-walkthrough
https://www.youtube.com/watch?v=bBe2FHSwwi0
https://www.youtube.com/watch?v=V4xwsYUVU-k
https://www.youtube.com/watch?v=RnnqQOquzTw
https://www.youtube.com/watch?v=43eljq2ix7c
https://liuyixiang.com/post/104984.html
http://118.190.38.122/sunset-dusk-vulnhub-walkthrough.html
https://www.youtube.com/watch?v=ULD2oILr9No
https://www.youtube.com/watch?v=tBCFBRyvpCI
https://www.cnblogs.com/hack404/p/12134047.html
https://www.kn0sky.com/archives/vulnhub-dusk-writeup
