https://raw.githubusercontent.com/JohndoeChivas/RootMeChallenges/master/Web-Serveur/%20HTTP%20-%20POST
https://www.youtube.com/watch?v=imeOAolhBWY
https://codeasy.nl/hacking/root-me-antwoorden/http-post/
https://www.youtube.com/watch?v=1-PsDk5rRVU
https://hackinblood.com/web-server-root-me-2/
