https://werewblog.wordpress.com/2016/01/17/pwnable-kr-cmd2/
https://github.com/Macmod/pwnable-writeups/blob/master/toddlers/cmd2.md
https://jeonyoungsin.tistory.com/923?category=878012
https://medium.com/@clong/pwnable-kr-cmd1-cmd2-writeups-e6980fa8daca
