https://raw.githubusercontent.com/HamidTheGeek/HackerRankSolutions/master/Solutions/SockMerchant.cs
https://raw.githubusercontent.com/jackivanov/go-tests/master/hackerrank/Problem%20Solving/Sock%20Merchant/main.go
https://raw.githubusercontent.com/RodneyShag/HackerRank_solutions/master/General%20Programming/Basic%20Programming/Sock%20Merchant/Solution.java
https://raw.githubusercontent.com/gabrielgiordan/hackerrank/master/algorithms/implementation/sock-merchant.js
https://raw.githubusercontent.com/danhenriquesc/hackerrank/master/algorithms/implementation/sock_merchant.php
https://raw.githubusercontent.com/ynyeh0221/HackerRank/master/Sock%20Merchant.py
https://raw.githubusercontent.com/raghav97/Hackerrank-Solutions/master/sock_merchant.rb
https://raw.githubusercontent.com/witekbobrowski/HackerRank/master/Algorithms/Implementation/sock-merchant.swift
