https://www.youtube.com/watch?v=Qgt3ZDUSzfA
https://hackso.me/lin.security-1-walkthrough/
https://in.security/lin-security-walkthrough/
https://medium.com/infosec-adventures/lin-security-walkthrough-de359b2b730d
https://pax0r.com/lin-security-writeup/
https://wjmccann.github.io/blog/2018/08/14/LinSecurity-Walkthrough
http://www.mannulinux.org/2018/07/vulnhub-linux-vm-linsecurity-1.html
https://latesthackingnews.com/2018/09/16/lin-security-vulnhub-ctf-challenge-walkthrough/
