https://raw.githubusercontent.com/nayuki/Project-Euler-solutions/master/haskell/p102.hs
https://raw.githubusercontent.com/nayuki/Project-Euler-solutions/master/java/p102.java
https://raw.githubusercontent.com/nayuki/Project-Euler-solutions/master/python/p102.py
