https://raw.githubusercontent.com/nayuki/Project-Euler-solutions/master/haskell/p089.hs
https://raw.githubusercontent.com/nayuki/Project-Euler-solutions/master/java/p089.java
https://raw.githubusercontent.com/nayuki/Project-Euler-solutions/master/python/p089.py
