https://thehackerway.com/2013/04/04/web-hacking-atacando-dojo-vulnerabilidades-sql-injection-en-hackme-casino-parte-xxv/#more-2328
https://www.youtube.com/watch?v=XmRphGAmg9o
https://infamoussyn.wordpress.com/2013/04/25/mcafee-hacme-casino-v1-0-walkthrough/
http://www.applicure.com/blog/anatomy-of-an-sql-injection-attack
https://www.youtube.com/watch?v=aJbnbo6zS00
https://dzone.com/articles/how-an-attacker-sees-your-website
