https://www.cnblogs.com/heycomputer/articles/10617379.html
https://jekhokie.github.io/linux/ssh/security/hijacking/2019/09/07/ssh-agent-hijacking.html
https://www.clockwork.com/news/2012/09/28/602/ssh_agent_hijacking/
https://blog.csdn.net/weixin_30421809/article/details/99600350
