https://raw.githubusercontent.com/blghns/assembly-lab-8/master/Assembly%20Project/Assembly%20Project/BSaglik_ZFarrer_Lab8.asm
https://raw.githubusercontent.com/lllllll-llll-llllll/codeabbey_autoit/master/31.au3
https://raw.githubusercontent.com/BearKruts/CodeAbbey/master/Brainfuck/BrainFibo.bf
https://gist.githubusercontent.com/mouseroot/5aa6d07d8d397aaf0c51e0f023cb53da/raw/847fcfa3da0fe4d20956ad414295034bf654b337/str_rot.c
https://raw.githubusercontent.com/pastelito02/Challenges-sol/master/Programming/Codeabbey/031/Leonid_Manieiev.cc
https://raw.githubusercontent.com/DestructHub/ProjectEuler/master/Problem004/Clojure/solution_1.clj
https://raw.githubusercontent.com/gravoo/codeabbey/master/Rotate%20String.cpp
https://raw.githubusercontent.com/AleksandrSD/CodeAbbeyProblems/master/Problem31/Program.cs
https://raw.githubusercontent.com/pastelito02/Challenges-sol/master/Programming/Codeabbey/031/Ratzenfutz.d
https://raw.githubusercontent.com/DestructHub/ProjectEuler/master/Problem031/Elixir/solution_1.exs
https://raw.githubusercontent.com/pastelito02/Challenges-sol/master/Programming/Codeabbey/031/dmitriygo.go
https://raw.githubusercontent.com/cevaris/hackerrank/master/haskell/rotate-string/rotate-string.hs
https://raw.githubusercontent.com/meganroche/CodeAbbeySolutions/master/Java/RotateString.java
https://raw.githubusercontent.com/pastelito02/Challenges-sol/master/Programming/Codeabbey/031/kittyaurel.jl
https://raw.githubusercontent.com/pastelito02/Challenges-sol/master/Programming/Codeabbey/031/kyle_kobie.js
https://raw.githubusercontent.com/peiandsky/codeabbeyByKotlin/master/src/problems01_10/Problem03_SumsInLoop.kt
https://raw.githubusercontent.com/pastelito02/Challenges-sol/master/Programming/Codeabbey/031/tarensanders.lisp
https://raw.githubusercontent.com/pastelito02/Challenges-sol/master/Programming/Codeabbey/031/atercattus.lua
https://raw.githubusercontent.com/jeilow/codeabbey/master/problem_31.m
https://raw.githubusercontent.com/pastelito02/Challenges-sol/master/Programming/Codeabbey/031/stefan.schmiedl.ml
https://raw.githubusercontent.com/mpeshehonov/Codeabbey/master/practice/%2331/index.php
https://raw.githubusercontent.com/pastelito02/Challenges-sol/master/Programming/Codeabbey/031/pearl_barley.pl
https://raw.githubusercontent.com/thundergnat/String-Rotate/master/lib/String/Rotate.pm6
https://raw.githubusercontent.com/vinitkantrod/codeabbey-Solutions-in-Python/master/31_smoothing_the_weather.py
https://raw.githubusercontent.com/John-Russell/CodeAbbey/master/Rotate%20String.rb
https://gitlab.com/CodeArtisan/codeabbey/raw/master/problem_31/solution.rkt
https://raw.githubusercontent.com/posquit0/HackerRank/master/Functional-Programming/Miscellaneous/rotate-string.scala
https://gist.githubusercontent.com/ldante86/bbb0f3e69aa61a90710d52a9928487cb/raw/d0fc4482d5f3e90119eee48401f7835e18169d8c/rot.sh
https://raw.githubusercontent.com/allsopp/string-rotate/master/Sources/StringRotate/StringRotate.swift
https://raw.githubusercontent.com/LynxBerry/Algorithms/c61b50cbded5ae1153c5db9042d544be6ea8f217/SquareRoot/squareRoot.ts
https://raw.githubusercontent.com/pastelito02/Challenges-sol/master/Programming/Codeabbey/031/Guy-Gervais.vb
