https://medium.com/@w3rallmachines/jis-ctf-vulnupload-vulnhub-walkthrough-b33ba57b2be0
https://www.youtube.com/watch?v=OfEYxPInrb8
https://www.youtube.com/watch?v=tjLY1yN_WXE
https://www.youtube.com/watch?v=AVdzl5QJkmA
