https://raw.githubusercontent.com/rdtsc/codeeval-solutions/master/src/easy/beautiful-strings/solutions/c/solution.c
https://raw.githubusercontent.com/rdtsc/codeeval-solutions/master/src/easy/beautiful-strings/solutions/c%2B%2B/solution.cpp
https://raw.githubusercontent.com/koshkarov/solutions-for-codeeval-tasks/master/BeautifulStrings.cs
https://raw.githubusercontent.com/Aadeshp/Codeeval-Solutions/29af977f30e6c5e5823e1e34ecd6de3c77506682/Easy/Beautiful_Strings.java
https://raw.githubusercontent.com/pascal-bourut/codeeval-challenges/master/easy/83%20-%20Beautiful%20strings/main.js
https://raw.githubusercontent.com/blamonet/php-code-eval-solutions/master/beautiful_strings.php
https://raw.githubusercontent.com/leaen/Codeeval-solutions/master/beautiful-strings.py
