12
5 18 34 13 12 21 54 6
9 13 34 44 23 14 55 19
4 21 32 6 6 12 23 52
11 8 28 59 16 21 58 47
12 22 29 51 19 5 44 14
8 21 31 24 17 8 10 26
0 13 49 46 23 12 17 56
9 19 50 34 25 11 13 27
5 12 33 53 7 17 7 10
22 10 21 36 25 2 47 21
5 21 33 40 17 4 39 47
8 23 48 0 28 22 7 46
