https://github.com/rapid7/metasploitable3/wiki/Vulnerabilities
https://two06.blogspot.com/2016/12/metasploitable-3-walkthrough.html
https://darkglade.com/2017/12/12/metasploitable3-community-ctf-walkthroughish/
