https://raw.githubusercontent.com/xkunwu/leetcode-collection/master/solutions/983.%20Minimum%20Cost%20For%20Tickets.cpp
https://raw.githubusercontent.com/kamyu104/LeetCode-Solutions/master/Golang/minimum-cost-for-tickets.go
https://raw.githubusercontent.com/bobwei/algorithms/master/src/leetcode/minimum-cost-for-tickets/index.js
https://raw.githubusercontent.com/baldFemale/LeetCode-Solution/master/python/Dynamic%20Programming/Minimum%20Cost%20For%20Tickets/Minimum%20Cost%20For%20Tickets.py
