https://raw.githubusercontent.com/rdtsc/codeeval-solutions/master/src/hard/palindromic-ranges/solutions/c/solution.c
https://raw.githubusercontent.com/jingcmu/codeeval/master/PALINDROMIC%20RANGES.cpp
https://raw.githubusercontent.com/pascal-bourut/codeeval-challenges/master/hard/47%20-%20Palindromic%20ranges/main.js
https://raw.githubusercontent.com/pascal-bourut/codeeval-challenges/master/hard/47%20-%20Palindromic%20ranges/main.php
https://raw.githubusercontent.com/mpillar/codeeval/master/2-hard/palindromic-ranges/main.py
https://gitlab.com/agaskell/codeeval/-/raw/master/47/47.rb
