https://raw.githubusercontent.com/rdtsc/codeeval-solutions/master/src/easy/lowercase/solutions/c/solution.c
https://raw.githubusercontent.com/mementum/codeeval/master/01-easy/0020-lowercase/0020-lowercase.cpp
https://raw.githubusercontent.com/koshkarov/solutions-for-codeeval-tasks/master/LowerCase.cs
https://gitlab.com/banjocat/codeeval_solutions/-/raw/master/20/main.go
https://raw.githubusercontent.com/ryanpbrewster/haskell/master/CodeEval/lowercase.hs
https://raw.githubusercontent.com/mpillar/codeeval/master/0-easy/lowercase/Lowercase.java
https://raw.githubusercontent.com/tpgmartin/CodeEval/master/JavaScript/easy/lowercase.js
https://raw.githubusercontent.com/rdtsc/codeeval-solutions/master/src/easy/lowercase/solutions/php/solution.php
https://gist.githubusercontent.com/yuheiomori/2554544/raw/9641ceaa31d058b6266a7b274174a6f02bdc0b68/lower_case.py
https://gitlab.com/tmck-code/codeeval/-/raw/master/easy/Ruby/LowerCase/ruby/LowerCase.rb
