https://skysec.top/2017/07/18/SQLi-LABS(Basic)(Less-1%20~%20Less-22)/#Less-11
https://www.youtube.com/watch?v=6sQ23tqiTXY
http://mysqltutes.com/wp/index.php/2018/07/02/sqli-lab-master-less-2-error-based-sql-injection/
https://resources.infosecinstitute.com/tutorial-on-sqli-labs/
https://raw.githubusercontent.com/gr4vit0n/sqli-labs-solution/master/less11.py
https://www.cnblogs.com/litlife/p/8519794.html
https://www.jianshu.com/p/bdd8f8cc6df3
https://www.v0n.top/2019/08/15/sqli-labs%E5%81%9A%E9%A2%98%E8%AE%B0%E5%BD%95(%E4%B8%80)/
https://copyfuture.com/blogs-details/20200201233225584qsw3ptocibq2a42
http://m.shangdixinxi.com/detail-1078090.html
https://topic.alibabacloud.com/a/sqli-labs-less-11_8_8_30058421.html
https://www.youtube.com/watch?v=ZrI5m1IJPeI
http://programmersought.com/article/1690786285/
https://blog.csdn.net/Fly_hps/article/details/80277701
http://chaosec.top/2018/02/09/sqli-labs2/
http://shangdixinxi.com/detail-1289173.html
