https://raw.githubusercontent.com/appsecco/dvna/master/docs/solution/a7-xss.md
https://www.youtube.com/watch?v=OVLz6RgOjIY
https://www.youtube.com/watch?v=tjREWp5XTx8
https://www.youtube.com/watch?v=PnBB0Fr56HM
https://www.youtube.com/watch?v=rtFH188ZJX8&t=4s
https://www.youtube.com/watch?v=inCS6PQYu34&t=3s
https://www.youtube.com/watch?v=L5l9lSnNMxg&t=41s
https://www.youtube.com/watch?v=Q2mGcbkX550
https://www.youtube.com/watch?v=r79ozjCL7DA&t=24s
https://www.youtube.com/watch?v=K59SwRGH61U&t=42s
https://www.youtube.com/watch?v=8GwVBpTgR2c&t=445s
https://www.youtube.com/watch?v=219ehZexfv0&t=10s
https://www.youtube.com/watch?v=M_nIIcKTxGk
https://www.youtube.com/watch?v=IuzU4y-UjLw
https://computersecuritystudent.com/SECURITY_TOOLS/DVWA/DVWAv107/lesson9/index.html
https://computersecuritystudent.com/SECURITY_TOOLS/DVWA/DVWAv107/lesson10/index.html
https://blog.appsecco.com/damn-vulnerable-nodejs-application-dvna-by-appsecco-7d782d36dc1e
https://blog.csdn.net/weixin_30781775/article/details/97314487
