https://raw.githubusercontent.com/nayuki/Project-Euler-solutions/master/java/p108.java
https://raw.githubusercontent.com/nayuki/Project-Euler-solutions/master/python/p108.py
https://raw.githubusercontent.com/nayuki/Project-Euler-solutions/master/mathematica/p108.mathematica
