https://raw.githubusercontent.com/mikkysati/Hackerrank-Solution-in-C/master/Two-arrays/Solution.cs
https://raw.githubusercontent.com/gabrielgiordan/hackerrank/master/algorithms/implementation/permutation-equation.js
https://raw.githubusercontent.com/raghav97/Hackerrank-Solutions/master/permuting_two_arrays.rb
