http://location-href.com/xvwa-walkthrough/
https://youtu.be/VF2QCQ0IZ3w
https://youtu.be/rIeJQqp4pzQ
https://www.youtube.com/watch?v=SSRbdi5v_Uc
https://docplayer.net/62705840-Xvwa-technical-run-information-security-inc.html
https://isec.ne.jp/wp-content/uploads/2017/07/11XVWA-Technical-Run.pdf
