https://raw.githubusercontent.com/JohndoeChivas/RootMeChallenges/master/Web-Serveur/%20HTTP%20-%20Verb%20tampering
https://raw.githubusercontent.com/zyjsuper/root-me-4/master/Web-Server/HTTP%20Verb%20Tampering
https://raw.githubusercontent.com/RomaniukVadim/wargaming-challenges/master/RootMe/web-server/HTTP_verb_tampering.txt
https://bitbelle.wordpress.com/2018/01/10/root-me-web-server-challenge-solutions/
https://hackinblood.lasermark.co/category/root-me/
