https://www.youtube.com/watch?v=Fuf8jWeJN68
https://www.cnblogs.com/hack404/p/10387894.html
https://mat4meblog.wordpress.com/2017/03/05/write-up-zixem-sqli/
https://medium.com/@KamranSaifullah/comprehensive-zixem-sqli-challenges-solutions-2019-fb1830da2dba
https://medium.com/@mikes_hacks/hold-my-hand-zixem-sqli-f521ef255d04
https://www.youtube.com/watch?v=ecTLS-Wvl5Y
