https://github.com/bsqrl/juice-shop-walkthrough#18-access-a-forgotten-backup-file
https://bkimminich.gitbooks.io/pwning-owasp-juice-shop/content/appendix/solutions.html
https://github.com/apox64/OWASP-Juice-Shop-Write-Up/blob/master/juice-shop-writeup.md#11-access-a-salesmans-forgotten-backup-file
https://incognitjoe.github.io/hacking-the-juice-shop.html