https://www.youtube.com/watch?v=x6AhGnt3fbk
https://www.youtube.com/watch?v=mUtKqTvIsgA
https://www.youtube.com/watch?v=n0BOWmM0gcI
https://www.youtube.com/watch?v=D9fI1r7uhRo
https://www.youtube.com/watch?v=CjNzzrEzTsU
https://www.youtube.com/watch?v=tiHtAndJM3g
https://www.youtube.com/watch?v=u-96HkBS8mY
https://www.youtube.com/watch?v=cRSvYc_x6u0
https://www.youtube.com/watch?v=i3SSka99Fpc
https://www.youtube.com/watch?v=Em958SRT9y8
https://www.youtube.com/watch?v=5p0Hra2i35I
https://www.digitalmunition.me/bwapp-xss-reflected-get-post-ajaxjson-ajaxxml/
