https://raw.githubusercontent.com/eagletmt/project-euler-c/master/1-9/problem5.c
https://raw.githubusercontent.com/danielfm/euler-clojure/master/euler/problem_5.clj
https://raw.githubusercontent.com/EaterOA/Euler/master/1-25/euler005.cpp
https://raw.githubusercontent.com/DestructHub/ProjectEuler/master/Problem005/Elixir/solution_1.exs
https://raw.githubusercontent.com/jmoiron/euler.go/master/005.go
https://raw.githubusercontent.com/nayuki/Project-Euler-solutions/master/haskell/p005.hs
https://raw.githubusercontent.com/nayuki/Project-Euler-solutions/master/java/p005.java
https://raw.githubusercontent.com/johnmyleswhite/projecteuler.jl/master/005.jl
https://raw.githubusercontent.com/necolas/project-euler/master/005/005.js
https://raw.githubusercontent.com/DestructHub/ProjectEuler/master/Problem005/CommonLisp/solution_1.lisp
https://raw.githubusercontent.com/DestructHub/ProjectEuler/master/Problem005/Lua/solution_1.lua
https://raw.githubusercontent.com/lilyball/projecteuler-ocaml/master/prob5.ml
https://raw.githubusercontent.com/fedeisas/project-euler/master/05/run.php
https://raw.githubusercontent.com/jpillora/euler-in-perl/master/005.pl
https://raw.githubusercontent.com/DestructHub/ProjectEuler/master/Problem005/Python/solution_2.py
https://raw.githubusercontent.com/zsiciarz/euler.rs/master/src/solutions/problem5.rs
https://raw.githubusercontent.com/samskivert/euler-scala/master/Euler005.scala
https://raw.githubusercontent.com/DestructHub/ProjectEuler/master/Problem005/Scheme/solution_1.scm
https://raw.githubusercontent.com/nayuki/Project-Euler-solutions/master/mathematica/p005.mathematica
