https://gist.githubusercontent.com/yuheiomori/8627352/raw/cdea57cea4afdf85c02fe68069eb17897e0a576f/main.go
https://raw.githubusercontent.com/mneudert/codeeval/master/easy/compressed-sequence/js.js
https://raw.githubusercontent.com/leaen/Codeeval-solutions/master/find-a-square.lua
https://raw.githubusercontent.com/mneudert/codeeval/master/easy/compressed-sequence/php.php
https://gist.githubusercontent.com/yuheiomori/d06fc056bcca9ca50a6f/raw/309a856e76d3a2b2d25af6df22de1fe8d38a0b00/main.py
https://gitlab.com/agaskell/codeeval/-/raw/master/101/101.rb
