https://raw.githubusercontent.com/pastelito02/Challenges-sol/master/Programming/Codeabbey/073/Marinovsky.cc
https://raw.githubusercontent.com/haotian-wu/Hackerrank_solutions/master/DynamicProgramming/hexagonal-grid.cpp
https://raw.githubusercontent.com/pastelito02/Challenges-sol/master/Programming/Codeabbey/073/smarrog.cs
https://raw.githubusercontent.com/pastelito02/Challenges-sol/master/Programming/Codeabbey/073/gsou859.hs
https://raw.githubusercontent.com/igor-kutepov/codeabbey/master/src/main/java/com/kutepov/samples/codeabbey/HexagonalGrid.java
https://raw.githubusercontent.com/pastelito02/Challenges-sol/master/Programming/Codeabbey/073/ZozoFouchtra.js
https://raw.githubusercontent.com/pastelito02/Challenges-sol/master/Programming/Codeabbey/073/gerhardt_funk.lisp
https://raw.githubusercontent.com/pastelito02/Challenges-sol/master/Programming/Codeabbey/073/atercattus.lua
https://raw.githubusercontent.com/pastelito02/Challenges-sol/master/Programming/Codeabbey/073/Dant12345.php
https://raw.githubusercontent.com/pastelito02/Challenges-sol/master/Programming/Codeabbey/073/pearl_barley.pl
https://raw.githubusercontent.com/kazamari/CodeAbbey/master/073_hexagonal-grid.py
https://raw.githubusercontent.com/pastelito02/Challenges-sol/master/Programming/Codeabbey/073/maverick.rb
https://raw.githubusercontent.com/pastelito02/Challenges-sol/master/Programming/Codeabbey/073/kennjensen.vb
https://raw.githubusercontent.com/JesseClarkND/codeabbey_in_C-NET/master/Hexagonal%20Grid
