https://www.youtube.com/watch?v=eSR7gDICDW0
https://art0fhack.blogspot.com/2018/08/stego-hackerman-htb.html
https://www.youtube.com/watch?v=2Eqyz7rUiGU
https://medium.com/@alirezaparvareshkho/hackthebox-stego-challenges-p-p-3969318f5ae5
https://interferencias.tech/2019/10/01/htb-hackerman/
https://briantsui2018.github.io/blog/2019/03/13/CS373-hackthebox.html#part2
