https://www.youtube.com/watch?v=7M-R6U2i5iI&t=3s
https://www.youtube.com/watch?v=Zkb1fZjNRLc&t=32s
https://www.youtube.com/watch?v=ivvTrTie16I&t=2s
https://www.youtube.com/watch?v=tZcHyaMR3oc
https://www.youtube.com/watch?v=bC10UV8cWUw&t=15s
https://www.youtube.com/watch?v=SHmQ3sQFeLE&t=3s
https://www.youtube.com/watch?v=AGJQfWSgC9U
https://www.youtube.com/watch?v=ReMtnfs8nxA
https://www.youtube.com/watch?v=JMq0rQF_1-c
https://www.youtube.com/watch?v=mLc-Nh_2KCI
https://code610.blogspot.com/2019/10/testing-dvna.html
https://github.com/appsecco/dvna/blob/master/docs/solution/a7-xss.md
https://appsecco.com/books/owasp-2017-dvna-attacks/stored-xss.html
https://www.cnblogs.com/hack404/p/10386938.html
https://www.colabug.com/2020/0204/6944285/
https://blog.csdn.net/weixin_30781775/article/details/97314487
