https://www.youtube.com/watch?v=ntfmIryn64g
https://medium.com/@hussaini.faisal/hackthebox-writeup-hawk-a2d2f2a7dda
https://0xdf.gitlab.io/2018/11/30/htb-hawk.html
https://resources.infosecinstitute.com/hack-the-box-htb-walkthrough-hawk/#gref
https://snowscan.io/htb-writeup-hawk/
https://www.hackplayers.com/2018/12/htb-writeup-hawk.html
https://hackso.me/hawk-htb-walkthrough/
https://securityboulevard.com/2019/07/hack-the-box-htb-machines-walkthrough-series-hawk/
https://blog.justinduch.com/article/htb_hawk
https://www.hackingarticles.in/hack-the-box-hawk-walkthrough/
https://raw.githubusercontent.com/Hackplayers/hackthebox-writeups/master/machines/Hawk/fiti-hawk.pdf
