https://www.youtube.com/watch?v=YTsAYXZANdg
https://alexandervoidstar.wordpress.com/2015/10/03/hackthis-crypt-level-1/
https://www.youtube.com/watch?v=MR0ZjR2a6WU
https://www.youtube.com/watch?v=eb-OxDr3O2k
https://www.youtube.com/watch?v=8-pqtDkaA_I
https://www.youtube.com/watch?v=Z9eGojDmqH4
https://www.youtube.com/watch?v=Bn9vOXxcsiU
https://www.youtube.com/watch?v=k9oN-5vwVT4
