https://raw.githubusercontent.com/pathosDev/CodinGame-Solutions/master/Puzzles/Easy/Bank%20Robbers/CSharp.cs
https://raw.githubusercontent.com/pathosDev/CodinGame-Solutions/master/Puzzles/Easy/Bank%20Robbers/Java.java
https://raw.githubusercontent.com/pathosDev/CodinGame-Solutions/master/Puzzles/Easy/Bank%20Robbers/Python.py
