https://github.com/rght/RingZer0-CTF-WriteUp/tree/master/forensics/dr.pouce
https://github.com/NotSurprised/RingZer0-CTF-Writeup/blob/master/Forensics/04.%20Dr.%20Pouce/Dr.%20Pouce.md
https://raw.githubusercontent.com/rght/RingZer0-CTF-WriteUp/master/forensics/dr.pouce/writeup.md
