https://alexandervoidstar.wordpress.com/2015/08/22/hackthis-intermediate-level-2/
https://www.youtube.com/watch?v=vewmHoO9oZQ
https://www.youtube.com/watch?v=GcDLftoaaSw
https://www.youtube.com/watch?v=d-2Tx_w93QM
https://www.youtube.com/watch?v=8x4C-UJRNk8
