https://raw.githubusercontent.com/kamyu104/LeetCode-Solutions/master/C%2B%2B/ambiguous-coordinates.cpp
https://raw.githubusercontent.com/charles-wangkai/leetcode/master/ambiguous-coordinates/Solution.java
https://raw.githubusercontent.com/kamyu104/LeetCode-Solutions/master/Python/ambiguous-coordinates.py
