https://raw.githubusercontent.com/HamidTheGeek/HackerRankSolutions/master/Solutions/FormingAMagicSquare.cs
https://raw.githubusercontent.com/charles-wangkai/hackerrank/master/magic-square-forming/Solution.java
https://raw.githubusercontent.com/gabrielgiordan/hackerrank/master/algorithms/implementation/magic-square-forming.js
https://raw.githubusercontent.com/witekbobrowski/HackerRank/master/Algorithms/Implementation/forming-a-magic-square.swift
