https://www.hackingarticles.in/cybersploit-1-vulnhub-walkthrough/
https://www.youtube.com/watch?v=k1fI_yOG5zc
https://medium.com/@char61462/vulnhub-cybersploit-1-walkthrough-oscp-prep-e706d9e1f0e8
https://blog.csdn.net/weixin_43784056/article/details/107473403
https://medium.com/@jonathanchelmus/vulnhub-walkthrough-cybersploit-e353008298db
https://secnhack.in/cybersploit-1-vulnhub-walkthrough/
https://laptrinhx.com/cybersploit-1-vulnhub-walkthrough-2395929779/
https://ksdpmx.bitbucket.io/2020/08/18/cybersploit-1-506/
https://www.youtube.com/watch?v=MD6yltJdwbg
