21
MYTH 27 27 29 28 32 33 29 28 32 36 34 36 40 38
OBAM 26 28 31 35 32 34 38 38 40 43 44 47 43 43
YUKA 36 36 37 36 37 38 37 36 36 35 35 35 36 36
SUGR 40 40 38 36 34 35 33 34 35 33 31 30 31 31
FANT 21 18 21 23 21 20 22 23 25 25 23 20 23 23
SLVR 56 56 55 56 53 56 58 56 55 55 56 59 61 64
FLNT 219 217 216 214 215 213 214 216 215 215 215 216 214 212
GEEK 46 46 45 47 49 51 48 47 48 52 50 47 50 47
IMIX 134 135 136 135 136 138 135 132 132 129 127 129 129 130
VDKL 237 238 239 239 237 236 236 236 236 235 236 238 237 235
CKCL 197 197 197 196 196 195 194 195 196 196 196 196 196 196
ASDF 20 20 19 21 23 24 23 23 24 24 25 24 23 23
ZEOD 57 57 56 56 55 53 51 52 53 53 51 51 53 51
SAKK 23 20 17 13 15 19 19 18 16 20 24 26 28 25
JOOG 23 23 23 25 23 21 20 18 20 17 15 16 15 16
INSX 72 70 72 69 70 67 64 65 67 69 71 68 71 69
DALG 65 66 69 72 74 75 72 69 68 68 70 72 75 75
GOLD 22 24 24 24 24 23 21 19 18 16 15 13 14 12
BLEP 20 18 19 20 18 21 19 22 24 21 21 18 16 18
FOTA 22 22 22 18 19 22 20 24 28 32 28 30 28 24
WOWY 67 67 68 67 67 67 66 65 65 65 66 65 65 64
