https://bkimminich.gitbooks.io/pwning-owasp-juice-shop/content/appendix/solutions.html
https://n0j.github.io/2018/08/07/owasp-juice-shop-v7.3.0-level-3.html
https://raw.githubusercontent.com/refabr1k/owasp-juiceshop-solutions/master/Level3/captcha-by-pass.md
