https://gitlab.com/agaskell/codeeval/-/raw/master/121/121.go
https://raw.githubusercontent.com/pascal-bourut/codeeval-challenges/master/moderate/121%20-%20Lost%20In%20Translation/121.js
https://raw.githubusercontent.com/pascal-bourut/codeeval-challenges/master/moderate/121%20-%20Lost%20In%20Translation/121.php
https://raw.githubusercontent.com/mpillar/codeeval/master/1-moderate/lost-in-translation/main.py
https://raw.githubusercontent.com/pluralism/CodeEval/master/Lost%20In%20Translation%20.rb
