https://www.youtube.com/watch?v=bgKth1K44QA
https://www.youtube.com/watch?v=WdtP8zbPJ9U
https://www.youtube.com/watch?v=5YI4_g9q0X4
https://www.youtube.com/watch?v=4QQRgfPGZl4
https://lt.wn.com/Hackthebox_Crimestoppers
https://0xdf.gitlab.io/2018/06/03/htb-crimestoppers.html
https://ironhackers.es/en/writeups/writeup-crimestoppers/
https://www.absolomb.com/2018-06-06-HackTheBox-CrimeStoppers/
https://video.hacking.reviews/2018/06/hackthebox-crimestoppers.html
https://www.linkedin.com/pulse/hack-box-challenge-crimestoppers-walkthrough-aarti-singh
https://github.com/lokori/htb-notes/blob/master/crimestoppers/crimestoppers-walkthrough.md
https://www.hackingarticles.in/hack-the-box-challenge-crimestoppers-walkthrough/
https://codemonkeyism.co.uk/htb-crimestoppers/
https://forum.hackthebox.eu/discussion/793/crimestoppers-writeup-by-manulqwerty
