https://raw.githubusercontent.com/StevenDunn/CodeEval/master/OneZeroTwoZero/c/oz.c
https://raw.githubusercontent.com/StevenDunn/CodeEval/master/OneZeroTwoZero/cpp/oz.cpp
https://raw.githubusercontent.com/adambose1990/CodeEvalJavaSolutions/master/src/com/codeeval/easy/OneZeroTwoZero.java
https://raw.githubusercontent.com/rdtsc/codeeval-solutions/master/src/easy/one-zero-two-zeros/solutions/javascript/solution.js
https://raw.githubusercontent.com/rdtsc/codeeval-solutions/master/src/easy/one-zero-two-zeros/solutions/php/solution.php
https://raw.githubusercontent.com/mpillar/codeeval/master/0-easy/one-zero-two-zeros/main.py
