https://github.com/bsqrl/juice-shop-walkthrough#10-retrieve-a-list-of-all-user-credentials-via-sql-injection
https://bkimminich.gitbooks.io/pwning-owasp-juice-shop/content/part2/injection.html
https://github.com/apox64/OWASP-Juice-Shop-Write-Up/blob/master/juice-shop-writeup.md#18-retrieve-a-list-of-all-user-credentials-via-sql-injection
https://incognitjoe.github.io/hacking-the-juice-shop.html
https://www.youtube.com/watch?v=nH4r6xv-qGg
https://www.youtube.com/watch?v=Cz37iejTsH4
https://www.youtube.com/watch?v=3ZFblGx5v94
https://www.youtube.com/watch?v=tQcC4uppqiY
https://www.youtube.com/watch?v=62Mj0ZgZvXc
https://www.youtube.com/watch?v=1hhd9EwX7h0
https://www.youtube.com/watch?v=gtBRZFSF9pM
https://www.youtube.com/watch?v=1hfAyU9lbko
https://www.youtube.com/watch?v=PB7hWlqTSqs
https://www.youtube.com/watch?v=cD7NN4vWtVQ
http://cybersecology.com/2017/01/owasps-juice-shop-practice-site-refreshing-reminder/
https://bestestredteam.com/2018/07/07/juice-shop-walkthrough-2-star/
https://testautonation.com/hack-juice-shop/
https://bkimminich.gitbooks.io/pwning-owasp-juice-shop/content/appendix/solutions.html
https://medium.com/@ratiros01/tryhackme-owasp-juice-shop-4ac7451b50de
https://amcculley19.github.io/OWASPJuiceShop
