https://computersecuritystudent.com/SECURITY_TOOLS/MUTILLIDAE/MUTILLIDAE_2511/lesson16/index.html
https://www.irongeek.com/i.php?page=videos/web-application-pen-testing-tutorials-with-mutillidae
https://youtu.be/sTTdFujJIAA
https://youtu.be/DXtLNGqfgMo
https://youtu.be/uJoMHujjo_I
