https://www.aldeid.com/wiki/WackoPicko/Directory-Traversal
https://www.youtube.com/watch?v=jJ0ijQ5pADE
https://www.youtube.com/watch?v=bBgdHS7i-dc
https://jogacrack.wordpress.com/category/tecnologia/page/4/
