https://raw.githubusercontent.com/HamidTheGeek/HackerRankSolutions/master/Solutions/MinimumSwaps2.cs
https://raw.githubusercontent.com/irlndts/go-hackerrank/master/interview-preparation-kit/arrays/3.minimum-swaps-2.go
https://raw.githubusercontent.com/gabrielgiordan/hackerrank/master/interview-preparation-kit/minimum-swaps-2.js
