https://raw.githubusercontent.com/garyemerson/lilys_homework/master/lilys_homework.cs
https://raw.githubusercontent.com/RyanFehr/HackerRank/master/Algorithms/Sorting/Lily's%20Homework/Solution.java
https://raw.githubusercontent.com/santiagohenao97/Reto1_Hacker_Rank/master/Liliys_homework.js
https://raw.githubusercontent.com/witekbobrowski/HackerRank/master/Algorithms/Sorting/lilys-homework.swift
