https://www.youtube.com/watch?v=RsyC96plQBk
https://www.youtube.com/watch?v=PNjrbA-8Rj8
https://www.youtube.com/watch?v=g_zOcz1uvW0
https://www.youtube.com/watch?v=yjdzlsRB6us
https://www.youtube.com/watch?v=nyZ6QTg3JzI
https://www.youtube.com/watch?v=2b0VD4_rg8Q
https://www.youtube.com/watch?v=b1GXHg-myHQ
