https://raw.githubusercontent.com/anomen-s/programming-challenges/master/root-me.org/Web-Server/SQL-injection-numeric/notes.txt
https://raw.githubusercontent.com/yelynn1/Root-me/master/Web_server.md
https://sokhoinhhn.blogspot.com/2017/09/web-serverrootme-sql-injection-numeric.html
https://codeasy.nl/hacking/root-me-antwoorden/sql-injection-numeric/
https://feelsec.info/2018/10/15/rootme-sql-injection-numeric-web/
https://www.securecorp.co.kr/33
https://rootable.tistory.com/entry/rootme-SQL-injection-numeric
https://osandamalith.com/2015/page/2/
https://hydrasky.com/network-security/sqlite-injection/
http://chaosec.top/2018/08/06/rootme1/
https://sql--injection.blogspot.com/p/sickos11.html
