https://www.postpwnedramblings.com/2018/07/hack-box-challenge-misdirection.html
http://homepages.rpi.edu/~wangy52/PersonalWebsite/build/html/Cybersecurity%20Labs/HTB-Misc.html
https://byte-mind.net/hackthebox-misc-challenge-misdirection/
