4

684

100000000

43924

34224

962175408

499

408

426663233

21120

43564

617040378

3

183

488063349

43662

805

29354788

407

1

402523164

45

34373

12

123456789

574

254945801

807

524

948

52739

23234

75257

17616

57625462

856

264

360010336

1000

743

0
