https://raw.githubusercontent.com/guillaume-nargeot/project-euler-clojure/master/src/project_euler/problem_173.clj
https://raw.githubusercontent.com/nayuki/Project-Euler-solutions/master/haskell/p173.hs
https://raw.githubusercontent.com/nayuki/Project-Euler-solutions/master/java/p173.java
https://raw.githubusercontent.com/djcomidi/projecteuler/master/problem173.py
