https://medium.com/@4ndr01d/hack-the-box-lernaean-walkthrough-f7bc26b83d02
https://phantominfosec.wordpress.com/2018/12/16/hackthebox-web-challenge-lernaean/
https://www.youtube.com/watch?v=As3IaiQDbnk
