https://medium.com/infosec-adventures/raven-walkthrough-4afee0d34d37
https://blog.barradell-johns.com/index.php/2018/12/17/raven-one-writeup/
https://blog.techorganic.com/2018/11/08/raven-hacking-challenge/
https://infosecjohn.blog/posts/vulnhub-raven/
http://www.teknokavram.com/guvenlik/raven-1-writeup/
https://apageinsec.wordpress.com/2019/04/03/raven-1-walkthrough/
https://resources.infosecinstitute.com/raven-1-ctf-walkthrough/#gref
https://0x23b.github.io/posts/vulnhub/2019-02-26-vulnhub_raven_1_writeup/
