https://scriptkidd1e.wordpress.com/geminiinc-v2-virtual-machine-walkthrough/
https://www.hackingarticles.in/hack-the-gemini-inc2-ctf-challenge/
https://d7x.promiselabs.net/2018/09/08/ctf-gemini-inc-2-walkthrough/
https://www.youtube.com/watch?v=FkxdyQ5KJKs
https://www.youtube.com/watch?v=num4FuCRImA
https://www.maritimecybersecurity.center/hack-the-gemini-inc2-ctf-challenge/
https://hackso.me/gemini-inc-v2-walkthrough/
