https://raw.githubusercontent.com/DavidWittman/cryptopals-challenge/master/set6/41.go
https://raw.githubusercontent.com/ilchen/cryptopals/master/src/main/java/com/cryptopals/Set6.java
https://raw.githubusercontent.com/lt/php-cryptopals/master/Cryptopals/Set6/Challenge41/Solution41.php
https://raw.githubusercontent.com/akalin/cryptopals-python3/master/challenge41.py
https://raw.githubusercontent.com/technion/matasano_challenge/master/set6/chal41/chal41.rb
