https://github.com/mzet-/ctf-writeups/tree/master/ctf.infosecinstitute.com#level-10
https://www.556forensics.com/2015/03/19/ctf-infosec-institute-n00bs-ctf-challenge/
https://rtheory.net/n00bs%20ctf/level-10/
