https://pentester.land/challenge/2018/07/10/owasp-broken-web-apps-owasp-bricks-challenge-walkthrough.html#login-5
https://sechow.com/bricks/docs/login-5.html
https://www.youtube.com/watch?v=rePCzOodqGo
https://www.youtube.com/watch?v=age-trMxOcg
https://www.youtube.com/watch?v=nZYejElQxhk

