http://www.amitghosh.net/hts-programming-mission-11-solution/
https://www.mtherkildsen.dk/post/programming-mission-11
https://raw.githubusercontent.com/Wh1t3Fox/hackthissite/master/programming/11.reverse_ascii/reverse.py
