https://www.youtube.com/watch?v=SyWUsN0yHKI
https://github.com/YeezyTaughtMe1/htb-wall-writeup
https://medium.com/@h4x0r101/write-up-htb-wall-5861fe9ff7ae
https://0xrick.github.io/hack-the-box/wall/
https://snowscan.io/htb-writeup-wall/
https://blog.barradell-johns.com/index.php/2020/02/11/htb-wall/
https://0xdf.gitlab.io/2019/12/07/htb-wall.html
https://0x44696f21.wordpress.com/2019/12/08/htb-wall/
https://resources.infosecinstitute.com/hack-the-box-htb-machines-walkthrough-series-wall/#gref
https://hackso.me/wall-htb-walkthrough/
https://werebug.com/hackthebox/reports/2019/12/08/htb-reports-wall.html
https://medium.com/@corneacristian/hackthebox-writeup-wall-31f5d4bcba1f
https://medium.com/@noobintheshell/htb-wall-writeup-202b98a4f9c3
https://blog.4iresearch.com/ctf-writeup/hack-the-box/wall/
https://samirettali.com/writeups/hackthebox/wall/
https://joona.xyz/2020/01/04/htb-wall.html
https://blog.kuhi.to/wall_htb_writeup
