http://countersite.org/articles/steganography/68-bctf-2016-stego-catvideo.html
https://github.com/DMArens/CTF-Writeups/tree/master/2016/BCTF/Forensics150
https://fadec0d3.blogspot.com/2016/03/bctf-2016-catvideo-150.html
https://github.com/WesternCyber/CTF-WriteUp/blob/master/2016/BCTF/Forensics150.md
http://veganzombies.org/writeups/2016/03/21/BCtf-catvideo.html
