https://bestestredteam.com/2018/07/07/juice-shop-walkthrough-2-star/
https://bkimminich.gitbooks.io/pwning-owasp-juice-shop/content/appendix/solutions.html
https://incognitjoe.github.io/hacking-the-juice-shop.html
https://github.com/pastelito02/Challenges-sol/blob/master/JuiceShop/Bsqrl/solutions.md
https://www.youtube.com/watch?v=WWxqff4_AoY
https://raw.githubusercontent.com/apox64/OWASP-Juice-Shop-Write-Up/master/juice-shop-writeup.md
