https://www.youtube.com/watch?v=XmRphGAmg9o
https://infamoussyn.wordpress.com/2013/04/25/mcafee-hacme-casino-v1-0-walkthrough/
https://thehackerway.com/2013/04/04/web-hacking-atacando-dojo-vulnerabilidades-sql-injection-en-hackme-casino-parte-xxv/#more-2328
https://rmccurdy.com/scripts/sql/tools/hacmecasino_userguide.pdf
http://www.applicure.com/blog/anatomy-of-an-sql-injection-attack
https://www.youtube.com/watch?v=aJbnbo6zS00
