http://sp4hack.blogspot.com/2012/10/we-chall-training-stegano-i.html
http://www.creatigon.com/blog/wechall-stegano-i-solution/
https://raw.githubusercontent.com/BirkhoffLee/wechall/master/exploit/stegano1/README.md
https://b0ngsec.blogspot.com/2016/08/wechall-training-stegano-1.html
https://raw.githubusercontent.com/james9909/PracticeCTF/master/WeChall/Stegano-1/Solution.txt
https://raw.githubusercontent.com/lc4t/OtherFiles/master/md/WeChall.md
http://deurus.info/2014/08/wechall-stegano-attachment-esteganografia/
http://byd.dropsec.xyz/2016/03/04/WeChall_writeup/#Training-Stegano-I
https://medium.com/secttp/wechall-training-stegano-i-90ef70b3812e
https://raw.githubusercontent.com/mzet-/ctf-writeups/master/wechall.net/wechall.md
https://pengyang.me/ctf/2018/08/19/wechall.html
http://www.voidcn.com/article/p-wnooxktd-bbq.html
