https://raw.githubusercontent.com/james9909/PracticeCTF/master/HackThis/Forensics-1/Solution.txt
http://hackinblood.lasermark.co/forensics/
https://raw.githubusercontent.com/divyanshusahu/HackThisSite/master/Forensics/README.md
https://underbarcham.tistory.com/47
https://www.youtube.com/watch?v=44ypaSoPS0E
https://medium.com/@mr.rat1100/p0isonp4wn-hackthis-forensics-writeup-efd1764a981b
https://www.youtube.com/watch?v=aJghHf8giKc
