https://raw.githubusercontent.com/Alevsk/google-ctf-2019/master/Drive_to_the_target/solution.js
https://github.com/Dvd848/CTFs/blob/master/2019_GoogleCTF_BQ/Drive_to_the_target.md
https://ctftime.org/writeup/15945
https://ctftime.org/writeup/15891
https://github.com/weibell/ctf-google2019-beginners/tree/master/write-up/day6-easier
https://github.com/wborgeaud/ctf-writeups/blob/master/GoogleCTF2019/drive-to-the-target/DriveToTheTarget.md
