https://github.com/smholsen/backdoorctf/tree/master/beginners/2013-web-50#2013-web-50
https://www.youtube.com/watch?v=Rbg-f5fJNHI
https://rawsec.ml/en/backdoorctf-2017-write-up/
http://acsweb.ucsd.edu/~abuss/backdoor2014.html
https://blog.csdn.net/dongyanwen6036/article/details/77855907
