105
15.8 -8.2
-43.8 -23.9
27.0 37.9
-19.4 2.5
41.8 26.8
25.6 -15.8
30.8 -29.3
-2.7 -49.7
19.6 25.3
-18.5 -17.4
-1.9 -34.6
43.8 4.3
24.1 -27.1
-9.7 -14.8
-5.6 -41.4
-10.2 -30.1
35.4 32.7
-46.8 12.5
-25.7 27.6
-15.8 -16.6
-32.0 9.2
15.5 -37.6
2.6 4.8
-12.2 -32.6
-31.0 -18.2
41.2 -11.6
-27.8 -26.1
-47.5 -10.3
27.8 6.0
0.4 40.2
-12.1 19.3
-37.8 -17.0
-23.2 44.2
5.5 -16.6
-0.7 -11.1
-40.2 16.3
-30.7 4.3
31.1 -33.1
-8.3 -1.7
18.6 -40.1
-17.1 -46.3
35.8 12.3
-1.0 -6.0
-44.3 0.8
27.5 13.0
19.9 45.6
-27.4 -35.0
7.1 42.9
24.9 -21.9
17.4 -31.4
37.1 2.6
22.4 -2.6
-7.6 0.7
17.2 -4.4
31.5 27.7
20.6 20.6
16.7 33.8
3.3 -43.3
-1.3 -26.8
1.0 -42.8
34.3 -35.4
29.7 22.9
-15.1 -22.1
-30.7 7.5
-38.3 23.5
17.1 26.0
-6.1 -8.5
23.9 -10.1
9.9 30.4
31.6 20.2
11.1 -37.1
3.0 49.7
10.2 -14.9
-29.8 0.4
11.0 34.8
18.9 14.3
14.5 31.8
10.2 -4.5
30.2 6.8
-22.1 -38.3
19.9 -32.6
39.0 26.1
-34.9 -21.7
0.8 0.6
18.9 -11.7
-36.2 27.0
10.4 16.9
-17.6 18.4
-39.4 -22.6
-16.1 -21.3
-17.5 30.9
18.6 11.5
23.3 -25.7
-10.8 -2.9
32.0 -16.3
20.2 -38.9
5.0 -34.3
-25.3 -5.6
6.8 -3.9
-13.7 -43.1
0.7 -49.7
-30.8 20.8
-14.1 32.5
-38.8 -25.2
-23.7 33.9
101
4.4 -30.3
-45.7 -4.2
-6.1 -19.3
31.8 -26.4
35.9 -33.3
-33.6 9.8
34.3 -4.3
-22.1 40.3
4.5 -8.3
-25.1 -22.5
-1.2 -3.6
-11.0 30.5
13.4 -33.2
-20.5 -3.9
-20.7 30.1
-41.3 14.2
20.2 -40.7
33.9 29.2
-31.7 21.0
26.6 0.1
37.0 -9.6
7.9 44.7
5.2 -16.0
-11.6 -38.3
16.3 -1.4
-21.4 -26.6
-33.1 17.2
-1.9 -23.3
36.2 26.9
0.7 -47.5
-13.6 -29.6
-22.1 -0.3
37.4 -15.7
9.0 -4.9
3.4 -43.7
17.8 -40.7
9.6 1.9
41.8 19.9
1.9 40.8
11.1 -40.5
23.5 29.7
25.9 -3.9
2.9 -33.1
16.0 19.7
-25.6 -28.3
-18.2 -22.4
29.6 -6.8
-24.2 4.3
25.1 15.9
-6.6 17.9
-11.8 16.0
-25.2 15.9
44.9 10.6
1.3 0.5
-11.2 -45.5
43.4 -8.9
-22.7 2.9
37.3 13.5
34.5 -27.2
-3.0 -22.7
31.1 -32.9
-35.9 -17.7
34.7 34.2
-37.8 29.9
13.3 37.4
25.3 25.3
-25.3 -36.9
10.6 6.4
-34.8 -6.2
21.7 -11.6
34.6 -34.8
-5.7 -40.5
-3.6 -18.0
1.1 -2.0
-41.8 24.7
-29.7 -30.4
36.6 -19.7
10.3 -9.8
31.4 2.8
-14.9 -9.0
-14.0 28.3
17.4 -14.1
20.2 -31.6
12.6 -25.4
-10.6 0.1
13.0 32.9
24.8 18.7
37.6 -21.0
33.5 19.1
-38.6 -17.8
-39.4 4.8
20.9 29.9
44.6 -21.9
19.8 -1.3
26.7 -33.2
17.3 35.1
35.1 12.2
-24.6 -30.7
-21.5 23.6
-32.3 -32.7
19.1 37.5
