https://www.rootnetsec.com/vulnhub-dina/
https://latesthackingnews.com/2018/08/22/dina-1-0-1-vulnhub-ctf-challenge-walkthrough/
https://walkingdeadhun.wordpress.com/2017/10/21/dina-1-0-walkthrough-vulnhub/
https://raw.githubusercontent.com/punkinnovation/dina1-0-1/master/README.md
https://www.sevenlayers.com/index.php/94-vulnhub-dina-1-0-1-walkthrough
https://medium.com/@honze_net/vulnhub-dina-1-0-1-write-up-deutsch-c31c70cafb73
https://alexandervoidstar.wordpress.com/2018/01/07/ctf-writeup-dina-1-0/
https://www.youtube.com/watch?v=CCMh9Y0Ey9k
https://www.youtube.com/watch?v=EZ8wUFspDHc
https://www.youtube.com/watch?v=3iAT5flqPJ4
https://www.youtube.com/watch?v=lXtwC0fBjD4
https://netosec.com/dina-101-vulnhub-walkthrough/
https://medium.com/@anushibin007/dina-1-0-1-vulnhub-walkthrough-4160122ad0bc
https://touhidshaikh.com/blog/2017/12/dina-walkthrough/
https://pentesterjourney.com/2019/01/09/dina-walkthrough/
https://emaragkos.gr/writeups/dina-101-vulnhub-walkthrough/
https://www.hackingarticles.in/hack-dina-vm-ctf-challenge/
https://www.thetechnews.online/2018/08/dina-101-vulnhub-ctf-challenge.html
https://iamroot.home.blog/2019/07/25/dina-walkthrough/
https://hacknews247.com/news/20180822/dina-1-0-1-vulnhub-ctf-challenge-walkthrough.html
https://rewritepackets.com/dina-1-0-1-walkthrough
