https://raw.githubusercontent.com/MaskRay/HackerRank/master/bytelandian-tours.cc
https://gist.githubusercontent.com/yuvipanda/1285165/raw/7a5095003f7c5f7469cfcd928565ad274328c10d/problemsetter.cpp
https://raw.githubusercontent.com/fiskio/Hacker-Rank/master/src/com/luckybrews/hackerrank/algorithms/graphtheory/ByteLandianTours.java
