https://medium.com/@rietesh/cartographer-web-challenge-from-hackthebox-htb-db866fc7e67f
https://www.moses-security.com/blog/hackthebox-the-cartographer-walkthrough
https://medium.com/bugdecoder/htb-cartographer-web-challenge-write-up-bc3f63918fb6
https://phantominfosec.wordpress.com/2018/12/18/hackthebox-web-challenge-cartographer/
https://blog.csdn.net/weixin_44215027/article/details/103514491
https://www.youtube.com/watch?v=HEO_b9sbuFA
https://www.youtube.com/watch?v=PF7eNA1ya1g
