https://raw.githubusercontent.com/eagletmt/project-euler-c/master/1-9/problem2.c
https://raw.githubusercontent.com/zimpha/competitive-programming/master/project-euler/volume01/2.cc
https://raw.githubusercontent.com/danielfm/euler-clojure/master/euler/problem_2.clj
https://raw.githubusercontent.com/EaterOA/Euler/master/1-25/euler002.cpp
https://gist.githubusercontent.com/EslaMx7/8728176/raw/25f9399f1b21e1de742cfe1d880964e16dbf9f37/ProjectEuler.P2.cs
https://raw.githubusercontent.com/DestructHub/ProjectEuler/master/Problem002/D/solution_1.d
https://raw.githubusercontent.com/DestructHub/ProjectEuler/master/Problem002/Elixir/solution_1.ex
https://raw.githubusercontent.com/jmoiron/euler.go/master/002.go
https://raw.githubusercontent.com/nayuki/Project-Euler-solutions/master/haskell/p002.hs
https://raw.githubusercontent.com/nayuki/Project-Euler-solutions/master/java/p002.java
https://raw.githubusercontent.com/johnmyleswhite/projecteuler.jl/master/002.jl
https://raw.githubusercontent.com/necolas/project-euler/master/002/002.js
https://raw.githubusercontent.com/DestructHub/ProjectEuler/master/Problem002/CommonLisp/solution_1.lisp
https://raw.githubusercontent.com/DestructHub/ProjectEuler/master/Problem002/Lua/solution_1.lua
https://raw.githubusercontent.com/lilyball/projecteuler-ocaml/master/prob2.ml
https://raw.githubusercontent.com/fedeisas/project-euler/master/02/run.php
https://raw.githubusercontent.com/jpillora/euler-in-perl/master/002.pl
https://raw.githubusercontent.com/zsiciarz/euler.rs/master/src/solutions/problem2.rs
https://raw.githubusercontent.com/samskivert/euler-scala/master/Euler002.scala
https://raw.githubusercontent.com/DestructHub/ProjectEuler/master/Problem002/Scheme/solution_1.scm
https://raw.githubusercontent.com/nayuki/Project-Euler-solutions/master/mathematica/p002.mathematica
