https://raw.githubusercontent.com/marioyc/Online-Judge-Solutions/master/SPOJ/Classical/8%20-%20Complete%20the%20Sequence!.cpp
https://raw.githubusercontent.com/davghouse/SPOJ/master/Spoj.Solver/Solutions/5%20-%20King/CMPLS.cs
https://raw.githubusercontent.com/kashsingh/SPOJ-Python-Solutions/master/CMPLS.py
