https://github.com/rapid7/metasploitable3/wiki/Vulnerabilities
https://wjmccann.github.io/blog/2018/04/07/Metasploitable3
https://stuffwithaurum.com/2020/04/17/metasploitable-3-linux-an-exploitation-guide/
