https://sarthaksaini.com/2019/June/web-app/fuzzy-htb/writeup.html
https://hippidikki.wordpress.com/2019/07/27/hackthebox-fuzzy/
https://petircysec.com/hackthebox-ctf-fuzzy/
https://medium.com/@drunksmit/fuzzy-hackthebox-web-app-challenge-d05242972220
https://blog.csdn.net/weixin_44215027/article/details/103036482
