https://raw.githubusercontent.com/nayuki/Project-Euler-solutions/master/java/p072.java
https://raw.githubusercontent.com/nayuki/Project-Euler-solutions/master/python/p072.py
https://raw.githubusercontent.com/sile/euler.rs/master/euler_02/src/problem072.rs
