https://computersecuritystudent.com/SECURITY_TOOLS/DVWA/DVWAv107/lesson7/index.html
https://www.youtube.com/watch?v=uVsG7vUTOmA
https://www.youtube.com/watch?v=GyL3RS7bFi8
https://www.youtube.com/watch?v=I5nrCCL4LIc
https://www.youtube.com/watch?v=hnVcLXuogDg
https://www.youtube.com/watch?v=ztxFcLNms40
http://www.tapost.org/wp-content/uploads/2016/10/3_s2_t3_1_Aigars-Naglis_Alise-Silde-LV.pdf
https://pentestlab.blog/2012/11/24/owning-the-database-with-sqlmap/
https://youtu.be/g-s-tBeBxYc
https://youtu.be/zyY8Ca6yCec
https://youtu.be/fQezCmvSQq4
https://www.information-security.fr/dvwa-sql-injection-solutions-protections/
https://drive.google.com/open?id=1gJR47olYRcKQ0fj2hSwebTyDaOD3cVQH
https://raw.githubusercontent.com/sheimo/DVWA-Answers/master/README.md
https://lepouvoirclapratique.com/blog/wp-content/uploads/2018/01/UE_Cybersecurite-TP_DVWA_v0.6.pdf#29
https://computersecuritystudent.com/SECURITY_TOOLS/DVWA/DVWAv107/lesson6/index.html
https://redinfocol.org/dvwa-conociendo-y-explotando-diferentes-vulnerabilidades-level-low/
https://youtu.be/F4tXa0tmTKo
https://youtu.be/GLvrieLufTA
https://youtu.be/HkYzEdRS-kA
https://youtu.be/ou5a1kzyrZA
https://youtu.be/q2EkWm9kfKE
https://youtu.be/U_BkEdKNrAM
https://youtu.be/VFF2qYUGy-o
https://youtu.be/-mP3HB5iAiI
