https://gitlab.com/agaskell/codeeval/-/raw/master/17/17.go
https://raw.githubusercontent.com/mpillar/codeeval/master/1-moderate/sum-of-integers/SumOfIntegers.java
https://raw.githubusercontent.com/pascal-bourut/codeeval-challenges/master/moderate/17%20-%20Sum%20of%20integers/17.js
https://raw.githubusercontent.com/pascal-bourut/codeeval-challenges/master/moderate/17%20-%20Sum%20of%20integers/17.php
https://raw.githubusercontent.com/leaen/Codeeval-solutions/master/sum-of-integers-from-file.py
https://gitlab.com/agaskell/codeeval/-/raw/master/17/17.rb
