https://raw.githubusercontent.com/brijeshb42/cpp/master/hackerRank/count-luck.c
https://raw.githubusercontent.com/BlakeBrown/HackerRank-Solutions/master/Algorithms/Searching/Count%20Luck.cpp
https://raw.githubusercontent.com/AlexAtNet/galgo/master/solutions/hackerrank/count-luck/count-luck.go
https://raw.githubusercontent.com/alexprut/HackerRank/master/Algorithms/Search/Count%20Luck/Solution.java
https://raw.githubusercontent.com/kauegimenes/hackerrank/master/Count%20Luck/semi-solution.js
https://raw.githubusercontent.com/ynyeh0221/HackerRank/master/Count%20Luck.py
https://raw.githubusercontent.com/rootulp/hackerrank/master/ruby/count_luck.rb
