https://raw.githubusercontent.com/rrylee/HackerRank-Solution/master/Algorithm/Implementation/13-acm-icpc-team.c
https://raw.githubusercontent.com/m3verma/Hackerrank-Solutions/master/ACM%20ICPC%20Team.cpp
https://raw.githubusercontent.com/leeychee/hackerrank/master/practice/algorithms/implementation/acm_icpc_team/main.go
https://raw.githubusercontent.com/RyanFehr/HackerRank/master/Algorithms/Implementation/ACM%20ICPC%20Team/Solution.java
https://raw.githubusercontent.com/gabrielgiordan/hackerrank/master/algorithms/implementation/acm-icpc-team.js
https://raw.githubusercontent.com/alessandrobardini/HackerRank-Solutions/master/All%20Tracks/Core%20CS/Algorithms/Implementation/ACM%20ICPC%20Team/Solution.py
https://raw.githubusercontent.com/raghav97/Hackerrank-Solutions/master/acm_icpc.rb
https://raw.githubusercontent.com/andrewrk/hackerrank/master/acm-icpc-team/main.rs
https://raw.githubusercontent.com/witekbobrowski/HackerRank/master/Algorithms/Implementation/acm-icpc-team.swift
