https://raw.githubusercontent.com/irlndts/go-hackerrank/master/algorithms/graphtheory/journeytothemoon.go
https://raw.githubusercontent.com/havelessbemore/hackerrank/master/algorithms/graph_theory/journey-to-the-moon.java
https://raw.githubusercontent.com/MaskRay/HackerRank/master/journey-to-the-moon.rb
