https://raw.githubusercontent.com/NikolasEnt/Coursera-Developing-Data-Products/master/scr/server.R
https://raw.githubusercontent.com/lllllll-llll-llllll/codeabbey_autoit/master/28.au3
https://raw.githubusercontent.com/phuclevinh2000/CodeAbbey/master/Body%20Mass%20Index.c
https://raw.githubusercontent.com/pastelito02/Challenges-sol/master/Programming/Codeabbey/028/ilyakovalevk.cc
https://raw.githubusercontent.com/spokenlore/CodeAbbey/master/Beginner/11.%20BMI/BMI.cpp
https://raw.githubusercontent.com/aschutgh/CodeAbbey/master/ProblemN28BodyMassIndex/Program.cs
https://raw.githubusercontent.com/pastelito02/Challenges-sol/master/Programming/Codeabbey/028/Ratzenfutz.d
https://raw.githubusercontent.com/Sharvin26/BMI/master/lib/ui/home.dart
https://raw.githubusercontent.com/pastelito02/Challenges-sol/master/Programming/Codeabbey/028/siloimwald.fs
https://raw.githubusercontent.com/javilag/codeAbbeyChalls/master/Challs/Go/028.go
https://raw.githubusercontent.com/pastelito02/Challenges-sol/master/Programming/Codeabbey/028/vladilen87.hs
https://raw.githubusercontent.com/meganroche/CodeAbbeySolutions/master/Java/BMI.java
https://raw.githubusercontent.com/pastelito02/Challenges-sol/master/Programming/Codeabbey/028/emoshkovich.jl
https://raw.githubusercontent.com/DylanLenz/codeAbbey_Solutions_JavaScript/master/bMICalculator_codeAbbey_28.js
https://raw.githubusercontent.com/NINadjem/BMI-Calculator/master/BMICalculator/app/src/main/java/com/nadjemni/bmicalculator/MainActivity.kt
https://raw.githubusercontent.com/chriswood/codeabbey/master/ca11.lisp
https://raw.githubusercontent.com/pastelito02/Challenges-sol/master/Programming/Codeabbey/028/atercattus.lua
https://raw.githubusercontent.com/Dikshya1/Body-Mass-Index-/master/Body_Mass_Index.m
https://raw.githubusercontent.com/pastelito02/Challenges-sol/master/Programming/Codeabbey/028/stefan.schmiedl.ml
https://raw.githubusercontent.com/mahendraseervi/Body-mass-index-measuring-device/master/BMI%20Userinterface.pde
https://raw.githubusercontent.com/mpeshehonov/Codeabbey/master/practice/%2328/index.php
https://raw.githubusercontent.com/pastelito02/Challenges-sol/master/Programming/Codeabbey/028/pearl_barley.pl
https://raw.githubusercontent.com/vinitkantrod/codeabbey-Solutions-in-Python/master/11_body_mass_index.py
https://raw.githubusercontent.com/marclerodrigues/ruby_exercises/master/body_mass_index.rb
https://raw.githubusercontent.com/pastelito02/Challenges-sol/master/Programming/Codeabbey/028/JustWaiting.rs
https://raw.githubusercontent.com/mmcdon20/code_abbey/master/src/main/scala/Abbey028.scala
https://raw.githubusercontent.com/mdmsua/BodyMassIndex/master/BodyMassIndex/Indexer.swift
https://raw.githubusercontent.com/alexdrean/beemy/master/src/MainWindow.vala
https://raw.githubusercontent.com/pastelito02/Challenges-sol/master/Programming/Codeabbey/028/Genek_proger.vb
https://raw.githubusercontent.com/JesseClarkND/codeabbey_in_C-NET/master/Body%20Mass%20Index
