https://github.com/skiptomyliu/solutions-bwapp#server-side-includes
http://www.hackingarticles.in/server-side-injection-explotation-bwapp/
http://thehackpot.blogspot.com/2014/05/server-side-includes-ssi-injection.html
http://stupidsecurity.tistory.com/63?category=760177
https://teckk2.github.io/web-pentesting/2018/02/07/Server-Side-Includes-(SSI)-Injection.html
https://www.youtube.com/watch?v=B5rkWcOAfmA
https://youtu.be/mm0fu3UoaKg?t=1m39s
https://www.youtube.com/watch?v=OgW_QqNB2E0
https://www.youtube.com/watch?v=DwkYFWWLNIY
https://seleniumbycharan.wordpress.com/2017/04/02/server-side-include-ssi-injection/
https://www.linkedin.com/pulse/server-side-injection-exploitation-bwapp-raj-chandel
http://www.reydes.com/d/?q=Explotar_una_Inyeccion_SSI_Server_Side_Includes_en_bWAPP
https://resources.infosecinstitute.com/server-side-includes-ssi-injection/
https://localsecurityblog.wordpress.com/2016/07/11/server-side-include-injectionssi/
https://www.solvetic.com/tutoriales/article/2916-pentesting-atacar-y-defender-aplicaciones-web-con-bwapp/
https://www.youtube.com/watch?v=2Jo_-vDE4io
https://studysecurity-world.tistory.com/61?category=806005
https://net123.tistory.com/449?category=695510
https://mukhilan.com/bwapp-php-ssi/
https://www.peerlyst.com/posts/server-side-include-ssi-injection-hari-charan
https://www.youtube.com/watch?v=2aOpushxSQ4
https://www.youtube.com/watch?v=9OM0tm5Wfak
https://www.youtube.com/watch?v=GMSix1a1Mi0
