https://raw.githubusercontent.com/guillaume-nargeot/project-euler-clojure/master/src/project_euler/problem_074.clj
https://raw.githubusercontent.com/nayuki/Project-Euler-solutions/master/java/p074.java
https://raw.githubusercontent.com/nayuki/Project-Euler-solutions/master/python/p074.py
https://raw.githubusercontent.com/sile/euler.rs/master/euler_02/src/problem074.rs
