https://raw.githubusercontent.com/PlatyPew/picoctf-2018-writeup/master/Web%20Exploitation/A%20Simple%20Question/README.md
https://raw.githubusercontent.com/zst123/picoctf-2018-writeups/master/Solved/A_Simple_Question/README.md
https://raw.githubusercontent.com/d4rkvaibhav/picoCTF-2018-Writeups/master/WEB_EXPLOITATION/A%20SIMPLE%20QUESTION/README.md
https://pwnthemole.github.io/web/2018/10/22/picoctfsimplequestion.html
https://www.youtube.com/watch?v=0m_zZLjJsxk
https://emlun.se/2018/10/13/picoctf-2018-a-simple-question.html
https://www.aperikube.fr/docs/picoctf_2018/asimplequestion/
