https://resources.infosecinstitute.com/hack-the-box-htb-machines-walkthrough-series-lazy/
https://www.youtube.com/watch?v=3VxZNflJqsw
https://www.youtube.com/watch?v=C1JOt5A3pgA
https://securityboulevard.com/2018/12/hack-the-box-htb-machines-walkthrough-series-lazy/
https://thehoustonhacker.com/2019/02/17/hackthebox-lazy-walk-through/
https://blog.haao.sh/writeups/lazy-writeup/
https://medium.com/@offs3cg33k/lazy-htb-walkthrough-b1960cc03832
https://0xdf.gitlab.io/2020/07/29/htb-lazy.html
https://exp1o1t9r.com/2020/01/31/hackthebox-lazy-writeup/
https://0xw0lf.github.io/2020/01/18/HTB-Lazy/
