https://raw.githubusercontent.com/texus/codingame/master/SingePlayer/Easy/ASCII%20Art.cpp
https://raw.githubusercontent.com/pathosDev/CodinGame-Solutions/master/Puzzles/Easy/ASCII%20Art/CSharp.cs
https://raw.githubusercontent.com/pathosDev/CodinGame-Solutions/master/Puzzles/Easy/ASCII%20Art/Java.java
https://raw.githubusercontent.com/vadim-job-hg/Codingame/master/EASY/ASCII%20ART/php/ascii-art.php
https://raw.githubusercontent.com/anomen-s/programming-challenges/master/codingame.com/easy/ASCII%20Art/solve.py
