https://raw.githubusercontent.com/smokeleeteveryday/CTF_WRITEUPS/master/2015/CSAWCTF/pwn/contacts/README.md
https://raw.githubusercontent.com/VulnHub/ctf-writeups/master/2015/csaw/contacts.md
https://www.whitehatters.academy/csaw-2015-prequals-exploit-250-contacts/
http://geeksspeak.github.io/blog/2015/09/21/csaw-2015-pwn250-contacts/
http://charo-it.hatenablog.jp/entry/2015/09/23/144438
