https://raw.githubusercontent.com/Samleo8/CoderByte/master/Easy/FirstReverse.c
https://raw.githubusercontent.com/juliabarboza/firstReverse/master/code.cpp
https://raw.githubusercontent.com/Fizzleboxer/CoderByte-ch1-FirstReverse/master/CoderByte_FirstReverse/Program.cs
https://raw.githubusercontent.com/Nigelmnz/CoderbyteSolutions/master/01-FirstReverse/1.hs
https://raw.githubusercontent.com/ZLester/Coderbyte-Solutions/master/Easy/01%20-%20First%20Reverse.js
https://raw.githubusercontent.com/brbcoding/Coderbyte/master/Easy/FirstReverse.php
https://raw.githubusercontent.com/KattaVishnuTeja-01/first-reverse-coderbyte/master/code.py
https://raw.githubusercontent.com/juyongsim/coderbyte/master/FirstReverse.rb
