https://blog.g0tmi1k.com/dvwa/bruteforce-low/
https://support.portswigger.net/customer/portal/articles/1964020-using-burp-to-brute-force-a-login-page
https://www.geeksforgeeks.org/automated-brute-forcing-web-based-login/
https://null-byte.wonderhowto.com/how-to/hack-like-pro-crack-online-web-form-passwords-with-thc-hydra-burp-suite-0160643/
https://bentrobotlabs.wordpress.com/2018/04/02/web-site-login-brute-forcing-with-hydra/
https://subinsb.com/php-block-brute-force/
https://olinux.net/brute-force-attack-login-form/
https://www.genbeta.com/desarrollo/ataques-de-fuerza-bruta-a-formularios-web
http://www.reydes.com/d/?q=Ataque_por_Fuerza_Bruta_contra_un_Formulario_HTML_de_Autenticacion_utilizando_Hydra
https://www.youtube.com/watch?v=xAAYMGto3XI
