https://raw.githubusercontent.com/BOAKGP/CTF-Writeups/master/ASIS%20CTF%20Quals%202018/Good%20WAF/README.md
https://balsn.tw/ctf_writeup/20180429-asisctfquals/#good-waf-(solved-by-ysc,-written-by-bookgin)
https://medium.com/bugbountywriteup/waf-evasion-base64-parameter-asisctf-2018-quals-good-waf-question-write-up-web-task-c8454d33ba4d
https://ctftime.org/writeup/9888
