https://www.youtube.com/watch?v=gS7uX83oWtk&t=34s
https://www.0xkasper.com/articles/rtcp-ctf-2020-write-up#humps-day
https://raw.githubusercontent.com/j4m3sb0nd007/riceteacatpanda/master/riceteacatpanda/humpsday/humpsday.md
https://matesz44.github.io/writeups/ctf/rtcp_2020/crypto/humps_day/
