https://raw.githubusercontent.com/appsecco/dvna/master/docs/solution/a10-insufficient-logging.md
https://www.youtube.com/watch?v=9eCMHYiarx0
https://appsecco.com/books/owasp-2017-dvna-attacks/ilm.html
https://www.cnblogs.com/hack404/p/10386938.html
https://blog.csdn.net/weixin_30781775/article/details/97314487
