https://www.youtube.com/watch?v=ZfPVGJGkORQ
https://www.hackingarticles.in/hack-the-box-challenge-grandpa-walkthrough/
https://drive.google.com/file/d/15stOeRGMvw02tTKthSX2usuMh1icGeQb/view
https://medium.com/@johnsonmatt/hackthebox-granny-grandpa-walkthrough-75983b34a92e
https://offsecdeer.gitlab.io/post/htb-writeup-grandpa/
https://ethicalhackingguru.com/hack-the-box-grandpa-walkthrough/
https://github.com/Bengman/CTF-writeups/blob/master/Hackthebox/grandpa.md
https://teckk2.github.io/writeup/2018/02/23/Grandpa-Granny.html
https://www.youtube.com/watch?v=v_4ECH8phmw
https://medium.com/@ranakhalil101/hack-the-box-grandpa-writeup-w-metasploit-e0b5cbc87aca
https://www.freecodecamp.org/news/keep-calm-and-hack-the-box-grandpa/
https://securityboulevard.com/2019/04/hack-the-box-htb-machines-walkthrough-series-grandpa/
https://qiita.com/sanpo_shiho/items/d6a46971d6c89841bb8f
https://xavilok.es/grandpa/2/
https://0xdf.gitlab.io/2020/05/28/htb-grandpa.html
https://exp1o1t9r.com/2020/01/26/hackthebox-grandpa-writeup/
http://road2oscp.blogspot.com/2018/01/grandpa-on-hacktheboxeu.html
https://medium.com/hackthebox-writeups/granny-and-grandpa-3f334deee7a8
https://www.puckiestyle.nl/htb-grandpa/
https://jasperandgarrison.wordpress.com/2017/12/03/hackthebox-grandpa/
https://dev.to/artis3n/writeup-hackthebox-grandpa-and-granny-with-metasploit-41ao
https://esseum.com/hack-the-box-grandpa-writeup/
