https://www.youtube.com/watch?v=90BJJ9wqnjo
https://medium.com/@DM20911/writeup-zipper-hack-the-box-espa%C3%B1ol-spanish-b4df3dca650f
https://www.absolomb.com/2019-02-26-HackTheBox-Zipper/
https://www.hackingarticles.in/hack-the-box-zipper-walkthrough/
https://www.sombrero-blanco.com/ciberseguridad/hack-the-box-writeup-zipper-spanish/
https://0xrick.github.io/hack-the-box/zipper/
https://snowscan.io/htb-writeup-zipper/#
https://hackso.me/zipper-htb-walkthrough/
https://0xdf.gitlab.io/2019/02/23/htb-zipper.html
https://vulndev.io/ctf/2019/02/22/htb-zipper.html
https://so.thosearethegui.se/2019/02/24/htb-Zipper.html
https://medium.com/hackthebox-walkthrough/hack-the-box-zipper-100ae149dd68
https://flamesec.com/posts/zipper/
https://getpocket.com/@Avanadra/share/4412351
