https://github.com/charles-wangkai/hacker.org/blob/master/challenge/FileMystery.py
http://hackerorgsolution.blogspot.com.co/2014/09/file-mystery.html
https://raw.githubusercontent.com/luceatnobis/challenges/master/hacker.org/file_mystery/fl
