http://hacktracking.blogspot.com.co/2013/08/redtigers-hackit-wargame-level-10.html
http://dogewatch.github.io/2016/05/18/RedTigers-Hackit/
http://juniorprincewang.github.io/2018/04/04/RedTiger-s-Hackit-writeup/#level10
