https://rgolebiowski.blogspot.com/2016/07/de-ice-2100.html
https://blog.techorganic.com/2011/08/01/de-ice-hacking-challenge-part-3/
https://blog.g0tmi1k.com/2010/02/de-icenet-v20-1100-level-2-disk-1/
