http://hackerorgsolution.blogspot.com.co/2014/09/didactic-rgb.html
https://raw.githubusercontent.com/charles-wangkai/hacker.org/master/challenge/DidacticRGB.py
https://raw.githubusercontent.com/luceatnobis/challenges/master/hacker.org/didactic_rgb/rgb
