https://github.com/bsqrl/juice-shop-walkthrough#21-change-the-link-in-the-description-of-the-o-saft-product-to-httpkimminichde
https://github.com/bkimminich/pwning-juice-shop/blob/master/appendix/solutions.md#change-the-href-of-the-link-within-the-o-saft-product-description
https://github.com/apox64/OWASP-Juice-Shop-Write-Up/blob/master/juice-shop-writeup.md#22-change-the-href-of-the-link-within-the-o-saft-product-description-into-httpkimminichde
https://bkimminich.gitbooks.io/pwning-owasp-juice-shop/content/part2/unvalidated-redirects.html
https://bkimminich.gitbooks.io/pwning-owasp-juice-shop/content/appendix/solutions.html
