https://raw.githubusercontent.com/codejoydo/codeforces/master/118a.c
https://raw.githubusercontent.com/nikzsaz/Codeforces-solution/master/118A-StringTask.cpp
https://raw.githubusercontent.com/yeicol/CodeForces/master/CF118AStringTask.java
https://raw.githubusercontent.com/DavidsonGuedes/Codeforces-Solved-Problems/master/118A.py
