https://computersecuritystudent.com/SECURITY_TOOLS/MUTILLIDAE/MUTILLIDAE_2511/lesson12/index.html
https://www.irongeek.com/i.php?page=videos/web-application-pen-testing-tutorials-with-mutillidae
https://youtu.be/dmYp2drEwwE
http://y2u.be/dmYp2drEwwE
http://khoatrd.blogspot.com/2013/11/bai-huong-dan-mutillidae-lesson-12-sql.html

https://www.youtube.com/watch?v=dzj9Y2ahYx8&list=PLZOToVAK85MrsyNmNp0yyUTBXqKRTh623&index=2
