https://raw.githubusercontent.com/appsecco/dvna/master/docs/solution/a1-injection.md
https://www.youtube.com/watch?v=dQ-_TO1zuvA
https://www.youtube.com/watch?v=BVI1-ikJ-xw
https://www.youtube.com/watch?v=NxSNTT627TQ&t=8s
https://www.youtube.com/watch?v=qLIkGJrMY9k
https://www.youtube.com/watch?v=HDkukd4h-ro
https://www.youtube.com/watch?v=8U88YvLMYQo
https://www.youtube.com/watch?v=NRHG_WChdXw
https://www.youtube.com/watch?v=kHsEhUGpfa4&t=8s
https://www.youtube.com/watch?v=zm9EB7534q0
https://www.youtube.com/watch?v=-HCl14dbTTg
https://appsecco.com/books/dvna-developers-security-guide/solution/a1-injection.html#command-injection
https://code610.blogspot.com/2019/10/testing-dvna.html
https://appsecco.com/books/owasp-2017-dvna-attacks/command-injection.html
https://www.cnblogs.com/hack404/p/10386938.html
https://zhuanlan.zhihu.com/p/105003724
https://blog.csdn.net/weixin_30781775/article/details/97314487
https://www.bbsmax.com/A/GBJrN6nBJ0/
