https://github.com/ctfs/write-ups-2015/tree/master/ghost-in-the-shellcode-2015/forensics/cloudfs#ghost-in-the-shellcode-2015-cloudfs
https://ctfcrew.org/writeup/96
https://labs.jumpsec.com/tag/ghost-in-the-shellcode-2015/
