https://gitlab.com/agaskell/codeeval/-/raw/master/32/32.go
https://raw.githubusercontent.com/mpillar/codeeval/master/1-moderate/trailing-string/TrailingString.java
https://raw.githubusercontent.com/pascal-bourut/codeeval-challenges/master/moderate/32%20-%20Trailing%20string/main.js
https://raw.githubusercontent.com/blamonet/php-code-eval-solutions/master/trailing_string.php
https://raw.githubusercontent.com/nakhan98/CodeEval/master/moderate/trailing_string.py
https://gitlab.com/agaskell/codeeval/-/raw/master/32/32.rb
