https://rundata.wordpress.com/2013/03/21/overthewire-bandit-wargame-solutions-1-24/
https://infamoussyn.com/2013/11/08/overthewire-bandit-level-0-25-writeup-completed/
https://jdow.io/blog/2017/12/16/overthewire-bandit-wargame-walkthrough/#level-10---11
https://www.yalpski.net/bandit-wargame/bandit-walkthrough-level-11
http://sp4hack.blogspot.com.co/2014/01/overthewire-bandit-level-11-to-level-12.html
https://alexandervoidstar.wordpress.com/2016/02/13/overthewire-bandit-level-11/
https://raw.githubusercontent.com/Cathon/mySolutions/master/overthewire/Bandit/Level_11.md
https://medium.com/@Kan1shka9/overthewire-wargames-bandit-walkthrough-df2b86826c67
https://github.com/milescrabill/overthewire-solutions/blob/master/Bandit.md#level-11
https://jhalon.github.io/over-the-wire-bandit2/
https://www.youtube.com/watch?v=zAwGIX7G9oc
https://www.youtube.com/watch?v=34_DDIAkxdY
https://www.youtube.com/watch?v=NReJMvYLWQI
https://www.hackmethod.com/overthewire-bandit-11/
https://raw.githubusercontent.com/Lorenyx/OverTheWire-Solutions/master/bandit/level_11.md

