https://raw.githubusercontent.com/DionysiosB/CodeAbbey/master/CloudAltitudeMeasurement.cpp
https://raw.githubusercontent.com/pastelito02/Challenges-sol/master/Programming/Codeabbey/172/DonRoberts.java
https://raw.githubusercontent.com/pastelito02/Challenges-sol/master/Programming/Codeabbey/172/KOR_Ryat.php
https://raw.githubusercontent.com/pastelito02/Challenges-sol/master/Programming/Codeabbey/172/Absurdis.py
https://raw.githubusercontent.com/JesseClarkND/codeabbey_in_C-NET/master/Cloud%20Altitude%20Measurement
