https://computersecuritystudent.com/SECURITY_TOOLS/MUTILLIDAE/MUTILLIDAE_2511/lesson5/index.html
https://pentestlab.blog/2013/02/25/sql-injection-authentication-bypass-with-burp/
https://www.irongeek.com/i.php?page=videos/web-application-pen-testing-tutorials-with-mutillidae
https://www.youtube.com/watch?v=BETwq7bnTpM
https://youtu.be/0_AN5FKsxaw
https://youtu.be/Fj0n17Jtnzw
https://youtu.be/WLmKK4LKdl0
https://youtu.be/3nAqRp9wt8g
