https://raw.githubusercontent.com/pascal-bourut/codeeval-challenges/master/moderate/150%20-%20Roman%20And%20Arabic/150.js
https://raw.githubusercontent.com/pascal-bourut/codeeval-challenges/master/moderate/150%20-%20Roman%20And%20Arabic/150.php
https://raw.githubusercontent.com/mpillar/codeeval/master/1-moderate/roman-and-arabic/main.py
