https://raw.githubusercontent.com/Cheshulko/Algorithms/master/Leetcode/BinaryTreeLevelOrderTraversal.cpp
https://raw.githubusercontent.com/Rikin04/leetcode/master/0102.binary-tree-level-order-traversal/binary-tree-level-order-traversal.java
https://raw.githubusercontent.com/MrErHu/Leetcode/master/algorithms/102.Binary%20Tree%20Level%20Order%20Traversal/Binary%20Tree%20Level%20Order%20Traversal.js
