https://raw.githubusercontent.com/HamidTheGeek/HackerRankSolutions/master/Solutions/ArraysLeftRotation.cs
https://raw.githubusercontent.com/irlndts/go-hackerrank/master/interview-preparation-kit/arrays/2.arrays-left-rotation.go
https://raw.githubusercontent.com/mechamecho/LeftRotation/master/src/LeftRotation.java
https://raw.githubusercontent.com/gabrielgiordan/hackerrank/master/interview-preparation-kit/ctci-array-left-rotation.js
https://raw.githubusercontent.com/witekbobrowski/HackerRank/master/Cracking%20the%20Coding%20Interview/Data%20Structures/arrays-left-rotation.swift
