https://raw.githubusercontent.com/Waqar-107/Codeforces/master/B-set/459B.pashmak%20and%20flower.cpp
https://raw.githubusercontent.com/changyuheng/codeforces-solutions/master/459b.js
https://raw.githubusercontent.com/changyuheng/codeforces-solutions/master/459b.py
