https://raw.githubusercontent.com/rdtsc/codeeval-solutions/master/src/easy/lettercase-percentage-ratio/solutions/c/solution.c
https://raw.githubusercontent.com/rdtsc/codeeval-solutions/master/src/easy/lettercase-percentage-ratio/solutions/c%2B%2B/solution.cpp
https://raw.githubusercontent.com/pascal-bourut/codeeval-challenges/master/easy/147%20-%20Lettercase%20percentage%20ratio/147.js
https://raw.githubusercontent.com/pascal-bourut/codeeval-challenges/master/easy/147%20-%20Lettercase%20percentage%20ratio/147.php
https://raw.githubusercontent.com/mpillar/codeeval/master/0-easy/lettercase-percentage-ratio/main.py
